{
    "{'pair_id': 208}": {
        "error": "",
        "response": {
            "data": [
                {
                    "screen_ID": "24",
                    "screen_data": {
                        "ob": "Yes",
                        "analysis": []
                    },
                    "screen_layout": "[L3],[L3],[L3],[L3],[L3],[L3],[L3],[p100],{[L3],[L3],[L3],[L3],[L3],[L3],[L3],[p100],[L3],[L3],[L3]}*"
                }
            ]
        }
    },
    "{'pair_id': 123456}": {
        "error": "",
        "response": {
            "data": [
                {
                    "screen_ID": "24",
                    "screen_data": {
                        "ob": "Yes",
                        "analysis": []
                    },
                    "screen_layout": "[L3],[L3],[L3],[L3],[L3],[L3],[L3],[p100],{[L3],[L3],[L3],[L3],[L3],[L3],[L3],[p100],[L3],[L3],[L3]}*"
                }
            ]
        }
    },
    "{'pair_id': 33, 'time_utc_offset': 288000, 'lang_id': 1}": {
        "error": "",
        "response": {
            "data": [
                {
                    "screen_ID": "24",
                    "screen_data": {
                        "ob": "Yes",
                        "analysis": []
                    },
                    "screen_layout": "[L3],[L3],[L3],[L3],[L3],[L3],[L3],[p100],{[L3],[L3],[L3],[L3],[L3],[L3],[L3],[p100],[L3],[L3],[L3]}*"
                }
            ]
        }
    },
    "{'pair_id': 10573911, 'time_utc_offset': 28800, 'lang_id': 1}": {
        "error": "",
        "response": {
            "data": [
                {
                    "screen_ID": "24",
                    "screen_data": {
                        "ob": "Yes",
                        "analysis": []
                    },
                    "screen_layout": "[L3],[L3],[L3],[L3],[L3],[L3],[L3],[p100],{[L3],[L3],[L3],[L3],[L3],[L3],[L3],[p100],[L3],[L3],[L3]}*"
                }
            ]
        }
    },
    "{'pair_id': 10573911, 'time_utc_offset': 2880, 'lang_id': 1}": {
        "error": "",
        "response": {
            "data": [
                {
                    "screen_ID": "24",
                    "screen_data": {
                        "ob": "Yes",
                        "analysis": []
                    },
                    "screen_layout": "[L3],[L3],[L3],[L3],[L3],[L3],[L3],[p100],{[L3],[L3],[L3],[L3],[L3],[L3],[L3],[p100],[L3],[L3],[L3]}*"
                }
            ]
        }
    },
    "{'pair_id': '10573911', 'time_utc_offset': 2880, 'lang_id': 1}": {
        "error": "",
        "response": {
            "data": [
                {
                    "screen_ID": "24",
                    "screen_data": {
                        "ob": "Yes",
                        "analysis": []
                    },
                    "screen_layout": "[L3],[L3],[L3],[L3],[L3],[L3],[L3],[p100],{[L3],[L3],[L3],[L3],[L3],[L3],[L3],[p100],[L3],[L3],[L3]}*"
                }
            ]
        }
    },
    "{'pair_id': 12345}": {
        "error": "",
        "response": {
            "data": [
                {
                    "screen_ID": "24",
                    "screen_data": {
                        "ob": "Yes",
                        "analysis": []
                    },
                    "screen_layout": "[L3],[L3],[L3],[L3],[L3],[L3],[L3],[p100],{[L3],[L3],[L3],[L3],[L3],[L3],[L3],[p100],[L3],[L3],[L3]}*"
                }
            ]
        }
    },
    "{'pair_id': 123}": {
        "error": "",
        "response": {
            "data": [
                {
                    "screen_ID": "24",
                    "screen_data": {
                        "ob": "Yes",
                        "analysis": []
                    },
                    "screen_layout": "[L3],[L3],[L3],[L3],[L3],[L3],[L3],[p100],{[L3],[L3],[L3],[L3],[L3],[L3],[L3],[p100],[L3],[L3],[L3]}*"
                }
            ]
        }
    },
    "{'pair_id': 1001801, 'time_utc_offset': 0, 'lang_id': 1, 'page': 1}": {
        "error": "",
        "response": {
            "data": [
                {
                    "screen_ID": "24",
                    "screen_data": {
                        "ob": "Yes",
                        "analysis": []
                    },
                    "screen_layout": "[L3],[L3],[L3],[L3],[L3],[L3],[L3],[p100],{[L3],[L3],[L3],[L3],[L3],[L3],[L3],[p100],[L3],[L3],[L3]}*"
                }
            ]
        }
    },
    "{'pair_id': 12345678}": {
        "error": "",
        "response": {
            "data": [
                {
                    "screen_ID": "24",
                    "screen_data": {
                        "ob": "Yes",
                        "analysis": []
                    },
                    "screen_layout": "[L3],[L3],[L3],[L3],[L3],[L3],[L3],[p100],{[L3],[L3],[L3],[L3],[L3],[L3],[L3],[p100],[L3],[L3],[L3]}*"
                }
            ]
        }
    },
    "{'pair_id': 12345, 'time_utc_offset': 0, 'lang_id': 1, 'page': 1}": {
        "error": "",
        "response": {
            "data": [
                {
                    "screen_ID": "24",
                    "screen_data": {
                        "ob": "Yes",
                        "analysis": []
                    },
                    "screen_layout": "[L3],[L3],[L3],[L3],[L3],[L3],[L3],[p100],{[L3],[L3],[L3],[L3],[L3],[L3],[L3],[p100],[L3],[L3],[L3]}*"
                }
            ]
        }
    },
    "{'pair_id': 123456789}": {
        "error": "",
        "response": {
            "data": [
                {
                    "screen_ID": "24",
                    "screen_data": {
                        "ob": "Yes",
                        "analysis": []
                    },
                    "screen_layout": "[L3],[L3],[L3],[L3],[L3],[L3],[L3],[p100],{[L3],[L3],[L3],[L3],[L3],[L3],[L3],[p100],[L3],[L3],[L3]}*"
                }
            ]
        }
    },
    "{'pair_id': 1234567890}": {
        "error": "",
        "response": {
            "data": [
                {
                    "screen_ID": "24",
                    "screen_data": {
                        "ob": "Yes",
                        "analysis": []
                    },
                    "screen_layout": "[L3],[L3],[L3],[L3],[L3],[L3],[L3],[p100],{[L3],[L3],[L3],[L3],[L3],[L3],[L3],[p100],[L3],[L3],[L3]}*"
                }
            ]
        }
    },
    "{'pair_id': 67890}": {
        "error": "",
        "response": {
            "data": [
                {
                    "screen_ID": "24",
                    "screen_data": {
                        "ob": "Yes",
                        "analysis": []
                    },
                    "screen_layout": "[L3],[L3],[L3],[L3],[L3],[L3],[L3],[p100],{[L3],[L3],[L3],[L3],[L3],[L3],[L3],[p100],[L3],[L3],[L3]}*"
                }
            ]
        }
    },
    "{'pair_id': 123456, 'lang_id': 1, 'time_utc_offset': 0}": {
        "error": "",
        "response": {
            "data": [
                {
                    "screen_ID": "24",
                    "screen_data": {
                        "ob": "Yes",
                        "analysis": []
                    },
                    "screen_layout": "[L3],[L3],[L3],[L3],[L3],[L3],[L3],[p100],{[L3],[L3],[L3],[L3],[L3],[L3],[L3],[p100],[L3],[L3],[L3]}*"
                }
            ]
        }
    },
    "{'pair_id': 1058142, 'lang_id': 300, 'time_utc_offset': 86400}": {
        "error": "",
        "response": {}
    },
    "{'pair_id': 1001801, 'time_utc_offset': 60, 'lang_id': 1, 'page': 2}": {
        "error": "",
        "response": {
            "data": [
                {
                    "screen_ID": "24",
                    "screen_data": {
                        "ob": "Yes",
                        "analysis": []
                    },
                    "screen_layout": "[L3],[L3],[L3],[L3],[L3],[L3],[L3],[p100],{[L3],[L3],[L3],[L3],[L3],[L3],[L3],[p100],[L3],[L3],[L3]}*"
                }
            ]
        }
    },
    "{'pair_id': 1001801, 'time_utc_offset': 2022, 'lang_id': 1, 'page': 1}": {
        "error": "",
        "response": {
            "data": [
                {
                    "screen_ID": "24",
                    "screen_data": {
                        "ob": "Yes",
                        "analysis": []
                    },
                    "screen_layout": "[L3],[L3],[L3],[L3],[L3],[L3],[L3],[p100],{[L3],[L3],[L3],[L3],[L3],[L3],[L3],[p100],[L3],[L3],[L3]}*"
                }
            ]
        }
    },
    "{'pair_id': 123456789, 'time_utc_offset': 0, 'lang_id': 1}": {
        "error": "",
        "response": {
            "data": [
                {
                    "screen_ID": "24",
                    "screen_data": {
                        "ob": "Yes",
                        "analysis": []
                    },
                    "screen_layout": "[L3],[L3],[L3],[L3],[L3],[L3],[L3],[p100],{[L3],[L3],[L3],[L3],[L3],[L3],[L3],[p100],[L3],[L3],[L3]}*"
                }
            ]
        }
    },
    "{'pair_id': 12345, 'lang_id': 1, 'time_utc_offset': 28800, 'page': 1}": {
        "error": "",
        "response": {
            "data": [
                {
                    "screen_ID": "24",
                    "screen_data": {
                        "ob": "Yes",
                        "analysis": []
                    },
                    "screen_layout": "[L3],[L3],[L3],[L3],[L3],[L3],[L3],[p100],{[L3],[L3],[L3],[L3],[L3],[L3],[L3],[p100],[L3],[L3],[L3]}*"
                }
            ]
        }
    },
    "{'pair_id': 0, 'time_utc_offset': 0, 'lang_id': 1, 'page': 1}": {
        "error": "",
        "response": {}
    },
    "{'pair_id': 987654321}": {
        "error": "",
        "response": {
            "data": [
                {
                    "screen_ID": "24",
                    "screen_data": {
                        "ob": "Yes",
                        "analysis": []
                    },
                    "screen_layout": "[L3],[L3],[L3],[L3],[L3],[L3],[L3],[p100],{[L3],[L3],[L3],[L3],[L3],[L3],[L3],[p100],[L3],[L3],[L3]}*"
                }
            ]
        }
    },
    "{'pair_id': 12345, 'lang_id': 1}": {
        "error": "",
        "response": {
            "data": [
                {
                    "screen_ID": "24",
                    "screen_data": {
                        "ob": "Yes",
                        "analysis": []
                    },
                    "screen_layout": "[L3],[L3],[L3],[L3],[L3],[L3],[L3],[p100],{[L3],[L3],[L3],[L3],[L3],[L3],[L3],[p100],[L3],[L3],[L3]}*"
                }
            ]
        }
    },
    "{'pair_id': 67890, 'lang_id': 12345}": {
        "error": "",
        "response": {}
    },
    "{'pair_id': 1, 'page': 2}": {
        "error": "",
        "response": "The expert analysis for the requested cryptocurrency pair with ID 1 is not available on page 2. Please ensure the correctness of the pair ID and that the analysis has been generated for this specific page. For pair ID 1, typically expert opinions include an overview of recent market performance, technical analysis with key support and resistance levels, price trend analysis and future outlook based on current market sentiment. However, these are subject to change and can vary on a case-by-case basis. To get the most accurate and updated analysis, please refer to the latest information available or consider reaching out on a different page if pagination is supported."
    },
    "{'pair_id': 1057391, 'page': 2}": {
        "error": "",
        "response": {
            "data": [
                {
                    "screen_ID": "39",
                    "screen_data": {
                        "ob": "No",
                        "analysis": [
                            {
                                "expert_id": "102",
                                "name": "John Doe",
                                "rating": "Expert",
                                "title": "Long-term Potential for Growth",
                                "snippet": "Cryptocurrency X shows a promising increase in user adoption that indicates potential for long-term growth.",
                                "date": "2023-04-01"
                            },
                            {
                                "expert_id": "178",
                                "name": "Susan Smith",
                                "rating": "Professional",
                                "title": "Market Volatility Concerns",
                                "snippet": "While Cryptocurrency X has had a solid performance, the current market volatility can affect its price stability in the short term.",
                                "date": "2023-04-03"
                            }
                        ]
                    },
                    "screen_layout": "[L3],[L3],[L3],[L3],[L3],[L3],[L3],[p100],{[L3],[L3],[L3],[L3],[L3],[L3],[L3],[p200],[L3],[L3],[L3]}"
                },
                {
                    "screen_ID": "40",
                    "screen_data": {
                        "ob": "No",
                        "analysis": [
                            {
                                "expert_id": "223",
                                "name": "Michael Brown",
                                "rating": "Analyst",
                                "title": "Regulatory Changes Upcoming",
                                "snippet": "Potential new regulations could pose challenges for Cryptocurrency X, affecting its market performance.",
                                "date": "2023-04-05"
                            },
                            {
                                "expert_id": "201",
                                "name": "Lisa Chang",
                                "rating": "Specialist",
                                "title": "Technical Analysis",
                                "snippet": "Technical indicators are showing a strong buy signal for Cryptocurrency X with a resistance level breakout.",
                                "date": "2023-04-07"
                            }
                        ]
                    },
                    "screen_layout": "[L3],[L3],[L3],[L3],[L3],[L3],[L3],[p200],{[L3],[L3],[L3],[L3],[L3],[L3],[L3],[p200],[L3],[L3],[L3]}"
                }
            ]
        }
    },
    "{'pair_id': 945629, 'page': 2}": {
        "error": "",
        "response": {
            "data": [
                {
                    "screen_ID": "42",
                    "screen_data": {
                        "ob": "No",
                        "analysis": [
                            {
                                "expert_id": "X1234",
                                "expert_opinion": "The cryptocurrency associated with pair_id 945629 shows a strong uptrend on the technical charts. The volume is increasing, indicating a potential accumulation phase. However, investors must be cautious as there is a resistance level approaching which could result in a price correction if not surpassed with significant volume.",
                                "time_stamp": "2023-04-10T12:00:00Z"
                            },
                            {
                                "expert_id": "X5678",
                                "expert_opinion": "Given the recent news about regulatory changes affecting this cryptocurrency market, there has been increased interest from institutional investors. This could bode well for a bullish trend, but one should watch out for sudden market moves based on upcoming legislative announcements.",
                                "time_stamp": "2023-04-10T15:30:00Z"
                            },
                            {
                                "expert_id": "X91011",
                                "expert_opinion": "Technically, the pair exhibits what could be the start of a consolidation pattern. Trading volume does not justify a decisive movement yet, and traders might want to wait for a clear signal beyond the current noise. The RSI indicator suggests the asset is neither overbought nor oversold, hovering around the 50 level, which aligns with this consolidation outlook.",
                                "time_stamp": "2023-04-11T09:00:00Z"
                            }
                        ]
                    },
                    "screen_layout": "[L2],[L2],[L2],[L2],[L2],[L2],[L2],[p50],{[L2],[L2],[L2],[L2],[L2],[L2],[L2],[p50],[L2],[L2],[L2]}*",
                    "page_info": {
                        "current_page": 2,
                        "total_pages": 4,
                        "items_per_page": 3,
                        "total_items": 11
                    }
                }
            ]
        }
    }
}