{
    "{'page': 1, 'limit': 5, 'keyword': 'travel restrictions in Bali'}": {
        "error": "",
        "response": {
            "item": [],
            "metadata": {
                "limit": 5,
                "page": 1,
                "total": 0,
                "total_page": 0
            }
        }
    },
    "{'page': 1, 'limit': 5, 'keyword': 'current events in Indonesia'}": {
        "error": "",
        "response": {
            "item": [],
            "metadata": {
                "limit": 5,
                "page": 1,
                "total": 0,
                "total_page": 0
            }
        }
    },
    "{'page': 1, 'limit': 5, 'keyword': 'latest movie releases'}": {
        "error": "",
        "response": {
            "item": [],
            "metadata": {
                "limit": 5,
                "page": 1,
                "total": 0,
                "total_page": 0
            }
        }
    },
    "{'page': 1, 'keyword': 'banjir'}": {
        "error": "",
        "response": {
            "items": [
                {
                    "title": "Banjir Bandang Melanda Jakarta Selatan, Ratusan Rumah Terendam",
                    "url": "https://www.detik.com/berita/banjir-bandang-melanda-jakarta-selatan",
                    "timestamp": "2023-04-05T10:30:00Z",
                    "snippet": "Hujan deras yang mengguyur Jakarta Selatan menyebabkan banjir bandang. Ratusan rumah di kawasan ini dilaporkan terendam air setinggi satu meter."
                },
                {
                    "title": "Pemerintah Akan Bangun Tanggul untuk Antisipasi Banjir di Jakarta",
                    "url": "https://www.detik.com/berita/pemerintah-akan-bangun-tanggul-jakarta",
                    "timestamp": "2023-04-04T15:20:00Z",
                    "snippet": "Pemerintah mengumumkan rencana pembangunan tanggul di beberapa titik rawan banjir di Jakarta sebagai langkah preventif terhadap bencana banjir."
                },
                {
                    "title": "Banjir di Bandung Barat: Ribuan Warga Mengungsi",
                    "url": "https://www.detik.com/berita/banjir-di-bandung-barat",
                    "timestamp": "2023-04-03T09:45:00Z",
                    "snippet": "Banjir besar yang terjadi di Bandung Barat telah menyebabkan ribuan warga harus mengungsi. Pemerintah daerah kini berupaya keras untuk mendirikan tenda-tenda pengungsian."
                },
                {
                    "title": "Waspada, BMKG Prediksi Cuaca Ekstrem Sebabkan Banjir di Beberapa Wilayah Indonesia",
                    "url": "https://www.detik.com/berita/bmkg-prediksi-cuaca-ekstrem",
                    "timestamp": "2023-04-02T16:50:00Z",
                    "snippet": "BMKG memberikan peringatan dini terkait potensi cuaca ekstrem yang dapat menyebabkan banjir di berbagai wilayah di Indonesia. Masyarakat diimbau untuk bersiap."
                },
                {
                    "title": "Krisis Banjir di Sulawesi, Akses Jalan Ditutup dan Listrik Padam",
                    "url": "https://www.detik.com/berita/krisis-banjir-di-sulawesi",
                    "timestamp": "2023-04-01T11:30:00Z",
                    "snippet": "Banjir yang melanda Sulawesi telah menyebabkan penutupan beberapa akses jalan utama dan pemadaman listrik. Tim SAR terus melakukan evakuasi dan pertolongan."
                }
            ],
            "metadata": {
                "limit": 5,
                "page": 1,
                "total": 125,
                "total_page": 25
            }
        }
    },
    "{'page': 1, 'limit': 10, 'keyword': 'banjir'}": {
        "error": "Failed to generate fake response",
        "response": ""
    }
}