{
    "{'page': 1}": {
        "error": "",
        "response": {
            "functions": [
                {
                    "name": "SUM",
                    "category": "Aggregation",
                    "description": "Adds all the numbers in a column.",
                    "syntax": "SUM(<column>)",
                    "use_case": "Use this function to calculate the total sum of a numeric column."
                },
                {
                    "name": "AVERAGE",
                    "category": "Aggregation",
                    "description": "Calculates the average of all the numbers in a column.",
                    "syntax": "AVERAGE(<column>)",
                    "use_case": "Use this function to find the mean value of a numeric column."
                },
                {
                    "name": "COUNT",
                    "category": "Counting",
                    "description": "Counts the number of rows that contain numbers in a column.",
                    "syntax": "COUNT(<column>)",
                    "use_case": "Use this to count the number of non-empty values in a column."
                },
                {
                    "name": "MIN",
                    "category": "Aggregation",
                    "description": "Returns the smallest number in a column.",
                    "syntax": "MIN(<column>)",
                    "use_case": "Utilize this function to find the minimum value in a set of values."
                },
                {
                    "name": "MAX",
                    "category": "Aggregation",
                    "description": "Returns the largest number in a column.",
                    "syntax": "MAX(<column>)",
                    "use_case": "Use this to determine the maximum value in a column."
                },
                {
                    "name": "CALCULATE",
                    "category": "Context",
                    "description": "Evaluates an expression in a modified filter context.",
                    "syntax": "CALCULATE(<expression>, <filter1>, <filter2>, ...)",
                    "use_case": "This powerful function is used to perform calculations over a set of rows that meet specified criteria."
                }
            ],
            "pagination": {
                "current_page": 1,
                "total_pages": 10,
                "has_next_page": true,
                "items_per_page": 6,
                "total_items": 60
            }
        }
    }
}