{
    "{'page': 1}": {
        "error": "",
        "response": {
            "gameplays": [
                {
                    "id": 1,
                    "title": "Necromancer's Rise",
                    "description": "Join the adventure of a Necromancer as they discover the power of the dead, mastering new spells and raising an undead army.",
                    "duration": "20 minutes",
                    "views": "1.2M",
                    "posted_date": "2023-06-15"
                },
                {
                    "id": 2,
                    "title": "Barbarian's Path",
                    "description": "Witness the raw strength in this gameplay where a Barbarian takes on a horde of enemies, showcasing brute force and weapon mastery.",
                    "duration": "15 minutes",
                    "views": "980K",
                    "posted_date": "2023-06-10"
                },
                {
                    "id": 3,
                    "title": "Sorceress Elemental Control",
                    "description": "Marvel at the Sorceress control over the elements, using ice and fire to thwart her foes in this intense gameplay.",
                    "duration": "18 minutes",
                    "views": "1.1M",
                    "posted_date": "2023-06-08"
                },
                {
                    "id": 4,
                    "title": "Rogue's Stealth Tactics",
                    "description": "Delve into the Rogue's gameplay, utilizing stealth and agility to outsmart opponents and land critical hits.",
                    "duration": "22 minutes",
                    "views": "850K",
                    "posted_date": "2023-06-05"
                },
                {
                    "id": 5,
                    "title": "Druid Shapeshifting Abilities",
                    "description": "Experience the Druid's shapeshifting abilities as they transform to adapt to various combat situations and terrains.",
                    "duration": "19 minutes",
                    "views": "900K",
                    "posted_date": "2023-06-02"
                }
            ],
            "page_info": {
                "current_page": 1,
                "total_pages": 10,
                "results_per_page": 5,
                "total_results": 50
            }
        }
    }
}