{
    "{'page': 1}": {
        "error": "",
        "response": {
            "players": [
                {
                    "name": "BlazeDeath",
                    "rank": 1,
                    "class": "Barbarian",
                    "followers": 35200,
                    "content_type": "Streamer",
                    "platform": "Twitch",
                    "country": "United States"
                },
                {
                    "name": "ArcanePower",
                    "rank": 2,
                    "class": "Sorceress",
                    "followers": 29810,
                    "content_type": "YouTuber",
                    "platform": "YouTube",
                    "country": "South Korea"
                },
                {
                    "name": "LootLord",
                    "rank": 3,
                    "class": "Druid",
                    "followers": 27600,
                    "content_type": "Streamer",
                    "platform": "Twitch",
                    "country": "Germany"
                },
                {
                    "name": "Eviscerate",
                    "rank": 4,
                    "class": "Rogue",
                    "followers": 25010,
                    "content_type": "Streamer",
                    "platform": "Twitch",
                    "country": "Russia"
                },
                {
                    "name": "HolyGuardian",
                    "rank": 5,
                    "class": "Paladin",
                    "followers": 23005,
                    "content_type": "Blogger",
                    "platform": "Blog",
                    "country": "Brazil"
                }
            ],
            "page_info": {
                "current_page": 1,
                "total_pages": 10,
                "results_per_page": 5,
                "total_results": 50
            }
        }
    },
    "{'page': 2}": {
        "error": "",
        "response": {
            "players": [
                {
                    "name": "ShadowMancer",
                    "rank": 6,
                    "class": "Necromancer",
                    "followers": 22000,
                    "content_type": "Streamer",
                    "platform": "Twitch",
                    "country": "Canada"
                },
                {
                    "name": "BeastWrangler",
                    "rank": 7,
                    "class": "Druid",
                    "followers": 21500,
                    "content_type": "Streamer",
                    "platform": "Twitch",
                    "country": "United Kingdom"
                },
                {
                    "name": "CrystalSage",
                    "rank": 8,
                    "class": "Sorceress",
                    "followers": 20000,
                    "content_type": "Youtuber",
                    "platform": "YouTube",
                    "country": "Japan"
                },
                {
                    "name": "AxePunisher",
                    "rank": 9,
                    "class": "Barbarian",
                    "followers": 19500,
                    "content_type": "Streamer",
                    "platform": "Twitch",
                    "country": "Australia"
                },
                {
                    "name": "PhantomArrow",
                    "rank": 10,
                    "class": "Rogue",
                    "followers": 18000,
                    "content_type": "Streamer",
                    "platform": "Twitch",
                    "country": "Italy"
                }
            ],
            "page_info": {
                "current_page": 2,
                "total_pages": 10,
                "results_per_page": 5,
                "total_results": 50
            }
        }
    }
}