{
    "{'limit': 10, 'page': 1, 'command': 'banjir'}": {
        "error": "Failed to generate fake response",
        "response": ""
    },
    "{'limit': 10, 'page': 1, 'command': 'flooding'}": {
        "error": "",
        "response": {
            "query": "flooding",
            "page": 1,
            "results": [
                {
                    "title": "Jakarta on Alert for Potential Flooding Due to Heavy Rains",
                    "link": "https://example.com/jakarta-flooding-alert",
                    "snippet": "The capital city, Jakarta, is on high alert as weather forecasts predict heavy rainfall that could lead to flooding in several areas.",
                    "date": "2023-04-15"
                },
                {
                    "title": "Residents Evacuated as Floods Hit Western Java",
                    "link": "https://example.com/west-java-floods-evacuation",
                    "snippet": "Flooding in Western Java has forced the evacuation of hundreds, with rising water levels threatening residential areas.",
                    "date": "2023-04-12"
                },
                {
                    "title": "Emergency Response Teams Deployed After Flash Floods",
                    "link": "https://example.com/flash-floods-response",
                    "snippet": "Following unexpected flash floods, emergency response teams have been dispatched to affected regions to aid affected citizens.",
                    "date": "2023-04-10"
                },
                {
                    "title": "Infrastructure Damage Reported Post-Flood Assessment",
                    "link": "https://example.com/post-flood-damage-report",
                    "snippet": "A post-flood assessment reveals significant infrastructure damage, with several bridges and roads requiring urgent repairs.",
                    "date": "2023-04-08"
                },
                {
                    "title": "Indonesian Government to Enhance Flood Defenses",
                    "link": "https://example.com/flood-defenses-enhancement",
                    "snippet": "In light of recent flooding events, the Indonesian government announces plans to bolster flood defenses across vulnerable regions.",
                    "date": "2023-04-05"
                },
                {
                    "title": "Schools Close as Floods Disrupt Daily Life in Sumatra",
                    "link": "https://example.com/sumatra-floods-school-closure",
                    "snippet": "Persistent heavy rains have resulted in widespread flooding, causing the temporary closure of schools in parts of Sumatra.",
                    "date": "2023-04-02"
                },
                {
                    "title": "Flood Relief Efforts Intensify as Communities Band Together",
                    "link": "https://example.com/flood-relief-efforts",
                    "snippet": "Community groups and NGOs intensify flood relief efforts, providing essentials and assistance to those impacted by the flooding.",
                    "date": "2023-04-01"
                },
                {
                    "title": "Technology in Focus: Leveraging Drones for Flood Monitoring",
                    "link": "https://example.com/drones-flood-monitoring",
                    "snippet": "Drones are increasingly being used for flood monitoring and disaster response to gather real-time data in flood-affected areas.",
                    "date": "2023-03-30"
                },
                {
                    "title": "Economic Impact of Floods Felt by Local Businesses",
                    "link": "https://example.com/floods-economic-impact",
                    "snippet": "The recent spate of floods has had a significant economic impact on local businesses, with many struggling to recover.",
                    "date": "2023-03-28"
                },
                {
                    "title": "Health Alert: Post-Flood Conditions Raise Disease Concerns",
                    "link": "https://example.com/post-flood-disease-alert",
                    "snippet": "Health officials issue an alert on the rising concerns of waterborne diseases in the aftermath of major flood events.",
                    "date": "2023-03-25"
                }
            ],
            "total_results": 150,
            "total_pages": 15
        }
    },
    "{'limit': 10, 'page': 1, 'keyword': 'banjir'}": {
        "error": "Failed to generate fake response",
        "response": ""
    },
    "{'limit': 10, 'page': 1, 'command': 'flood'}": {
        "error": "",
        "response": "The search results from Kompas for the query 'flood' are as follows. The first page with a limit of 10 articles has been retrieved. 1. 'Jakarta Floods: Understanding the City's Seasonal Challenge' - The article discusses Jakarta's perennial problem with flooding during the rainy season, examining the causes, the impact on residents, and the measures being taken to mitigate the issue. 2. 'Flood Mitigation Efforts: Analysis of Indonesia's Strategies' - This is an in-depth look into the government initiatives to prevent flooding, including infrastructure projects like dams and drainage systems. 3. 'Surviving the Flood: Stories from the Affected Locals' - Personal accounts of those who have been affected by the recent floods, detailing their experiences and how they have coped with the disaster. 4. 'Economic Impact of the Flood on Small Businesses' - The report evaluates how small and local businesses are struggling during frequent floods, with a focus on economic losses and recovery plans. 5. 'Flood Relief Operations: What's Being Done?' - An update on the various relief operations being conducted to help flood victims, including efforts by NGOs and government agencies. 6. 'Understanding Climate Change's Role in Severe Flooding' - The article investigates the role of climate change in exacerbating the severity and frequency of floods in Indonesia. 7. 'Health Risks during Floods: What the Public Needs to Know' - Important health information highlighting the risks and diseases prevalent during floods and advice on how to stay safe. 8. 'Technology in Flood Prediction and Warning Systems' - Coverage of the latest advancements in technology being used to predict floods and provide early warnings to residents. 9. 'Flood Insurance in Indonesia: Coverage and Challenges' - A look into how flood insurance is becoming increasingly important and the challenges faced by insurers and policyholders. 10. 'Rebuilding after the Flood: The Recovery Process' - Insights on the recovery and rebuilding process in flood-affected regions, including how communities are rebuilding homes and infrastructure."
    },
    "{'limit': 10, 'command': 'banjir'}": {
        "error": "",
        "response": "The API 'kompas-search' is designed to search and retrieve news articles from Kompas, a major news website in Indonesia. Upon receiving the command 'banjir' with a limit of 10, the API will execute a search for articles related to floods, which is indicated by the term 'banjir'. It will then compile a list of the top 10 most relevant articles that match this search term. These articles will likely include current news related to recent flooding events in Indonesia, safety advisories, impact assessments, and potentially related governmental or NGO responses to the situation. The response includes article titles, excerpts, publication dates, and URLs to the full articles on the Kompas website where users can read the full stories. This search is dynamic and the returned content will be up-to-date reflecting the most recent and relevant articles on the topic of 'banjir' or floods in Indonesia."
    },
    "{'limit': 10, 'page': 1, 'command': 'bencana banjir'}": {
        "error": "",
        "response": "The search query for 'bencana banjir' has returned the following top 10 news articles from Kompas, one of Indonesia's leading news portals. This list provides the most relevant and recent coverage of flood disasters (bencana banjir) as accessed from page 1:\n\n1. 'Jakarta Underwater: Assessing the Impact of the Recent Floods' - An in-depth report on the recent floods affecting Jakarta, including analysis on the response strategies and the impact on the local population.\n\n2. 'Flood Warning Systems: Are They Effective in Indonesia?' - A critique of the current flood warning systems in place and their effectiveness in light of the recent natural disasters.\n\n3. 'Community Resilience: Stories of Survival from Bandung's Floods' - A collection of personal accounts from survivors of the floods in Bandung, offering insights into their resilience and recovery.\n\n4. 'Infrastructure and Floods: Can Indonesia's Capital Cope?' - An examination of how well Jakarta's infrastructure is equipped to handle the challenges posed by frequent flooding.\n\n5. 'Helping Hands: Volunteer Efforts in Flood-Hit Areas' - A report on the various volunteer groups and their efforts to provide relief in flood-stricken regions.\n\n6. 'Economic Toll: The Cost of Flood Disasters in Indonesia' - An analysis of the economic impact of floods, including losses in business and the cost of damages.\n\n7. 'Health Concerns Following Floods in Surabaya' - A look at the health implications following major flooding, including the spread of water-borne diseases.\n\n8. 'Flood Mitigation: Government and Community Initiatives' - A review of the initiatives taken by the government and local communities to mitigate the effects of future flooding.\n\n9. 'Climate Change and Flooding Patterns in Indonesia' - An exploration of how climate change is influencing the frequency and severity of flooding events in the country.\n\n10. 'Preparing for the Unpredictable: Flood Disaster Readiness' - An advisory piece on how individuals and communities can better prepare for the eventuality of floods."
    },
    "{'limit': 10, 'command': 'bencana banjir'}": {
        "error": "",
        "response": "Based on your request, we've used the 'kompas-search' API to gather information regarding 'bencana banjir' (flooding disasters) from Kompas, one of the leading news publishers in Indonesia. Here are the top 10 most recent articles related to flooding disasters: 1. 'Banjir Jakarta: Analisis Penyebab dan Upaya Penanganannya', which dives into the causes and efforts to tackle the floods in Jakarta. 2. 'Korban Banjir Bandang di NTT Bertambah, Pemerintah Kerahkan Bantuan', reporting the increasing number of victims from flash floods in East Nusa Tenggara and the government's response. 3. 'Banjir Bandang Garut: Kerugian Ekonomi dan Dampak Sosial', which discusses the economic losses and social impact of the flash floods in Garut. 4. 'Mitigasi Bencana Banjir di Indonesia: Kebijakan dan Implementasi', focusing on flood disaster mitigation policies in Indonesia and their implementation. 5. 'Banjir di Sulawesi: Tanggap Darurat dan Langkah Evakuasi', an urgent report on flood response and evacuation steps in Sulawesi. 6. 'Studi Kasus: Banjir di Samarinda dan Solusi Pengelolaan Daerah Aliran Sungai', a case study on the floods in Samarinda and river basin management solutions. 7. 'Hujan Ekstrem dan Banjir: Perubahan Iklim Sebagai Faktor Penggerak', examining how extreme rainfall and floods are influenced by climate change. 8. 'Strategi Kota-kota di Indonesia dalam Menghadapi Musim Hujan dan Banjir Tahunan', which outlines the strategies of Indonesian cities in dealing with the annual rainy season and floods. 9. 'Pelajaran dari Banjir Bandang Sentani: Pentingnya Kesiapsiagaan Bencana', learning from the flash floods in Sentani, emphasizing the importance of disaster preparedness. 10. 'Memahami Risiko Banjir di Pantura: Perspektif Geografis dan Sosial', provides an understanding of flood risks on the North Coast (Pantura) from geographical and social perspectives. These articles are a starting point for a comprehensive overview of the situation and response to flooding disasters in various parts of Indonesia."
    },
    "{'limit': 10, 'command': 'flood'}": {
        "error": "",
        "response": {
            "source": "Kompas",
            "query": "flood",
            "articles": [
                {
                    "title": "Jakarta Anticipates Floods as Heavy Rainfall Predicted to Hit the Capital",
                    "url": "https://www.kompas.com/news/2023/03/28/heavy-rainfall-in-jakarta",
                    "snippet": "Authorities in Jakarta are on alert for possible flooding as meteorologists forecast a week of intense rain ahead."
                },
                {
                    "title": "Flood Mitigation Efforts Intensify in Bandung",
                    "url": "https://www.kompas.com/news/2023/03/27/bandung-flood-mitigation",
                    "snippet": "Bandung's local government has rolled out a new initiative to strengthen the city's flood defenses."
                },
                {
                    "title": "Floods Hit Central Java, Thousands Displaced",
                    "url": "https://www.kompas.com/news/2023/03/26/floods-in-central-java",
                    "snippet": "Rising water levels in several districts in Central Java have led to the displacement of thousands of residents."
                },
                {
                    "title": "Residents Rally to Provide Aid for Flood Victims in Sulawesi",
                    "url": "https://www.kompas.com/news/2023/03/25/flood-aid-in-sulawesi",
                    "snippet": "Community groups have begun collecting donations to help those affected by the recent floods in Sulawesi."
                },
                {
                    "title": "Experts Discuss Long-Term Solutions for Flood Problems",
                    "url": "https://www.kompas.com/news/2023/03/24/expert-discussion-on-floods",
                    "snippet": "A panel of experts convened to discuss sustainable strategies to address Indonesia's recurrent flood issues."
                },
                {
                    "title": "Flood-Resilient Infrastructure: Indonesia Invests in Future-Proof Cities",
                    "url": "https://www.kompas.com/news/2023/03/23/indonesia-invests-in-infrastructure",
                    "snippet": "The Indonesian government announces massive investments to create flood-resilient infrastructure across urban areas."
                },
                {
                    "title": "Emergency Response Teams Deployed as Floods Submerge Neighborhoods",
                    "url": "https://www.kompas.com/news/2023/03/22/flood-emergency-response",
                    "snippet": "Emergency response teams are working relentlessly to assist communities affected by recent flooding."
                },
                {
                    "title": "How Climate Change is Exacerbating Flood Risks in Indonesia",
                    "url": "https://www.kompas.com/news/2023/03/21/climate-change-and-floods",
                    "snippet": "New studies show the link between climate change and an increase in the frequency and severity of floods in Indonesia."
                },
                {
                    "title": "Indonesia's Flood Prone Cities: An Overview",
                    "url": "https://www.kompas.com/news/2023/03/20/flood-prone-cities",
                    "snippet": "A look into the cities across Indonesia that are most vulnerable to flooding and the measures being taken to protect them."
                },
                {
                    "title": "Flood Insurance Demand Rises as Homeowners Seek Protection",
                    "url": "https://www.kompas.com/news/2023/03/19/flood-insurance-demand",
                    "snippet": "In the wake of recent floods, more homeowners in Indonesia are considering flood insurance to protect their properties."
                }
            ],
            "pagination": {
                "current": 1,
                "limit": 10,
                "next": "https://api.kompas.com/search?page=2&command=flood",
                "previous": null
            }
        }
    },
    "{'limit': 5, 'page': 1, 'command': 'banjir'}": {
        "error": "",
        "response": {
            "articles": [
                {
                    "title": "Banjir Bandang Terjang Jabodetabek, Ratusan Rumah Terendam",
                    "link": "https://example.com/news/banjir-bandang-jabodetabek",
                    "source": "Kompas",
                    "published_date": "2023-04-01T08:00:00Z",
                    "summary": "Hujan deras yang terjadi sepanjang malam menyebabkan banjir bandang di beberapa wilayah Jabodetabek. Ratusan rumah dilaporkan terendam."
                },
                {
                    "title": "Banjir Jakarta, Pemerintah Akan Evaluasi Sistem Drainase",
                    "link": "https://example.com/news/banjir-jakarta-evaluasi-drainase",
                    "source": "Kompas",
                    "published_date": "2023-03-30T14:30:00Z",
                    "summary": "Pemerintah setempat mengumumkan akan melakukan evaluasi terhadap sistem drainase di Jakarta, menyusul banjir yang terjadi di beberapa area."
                },
                {
                    "title": "Korban Banjir di Sulawesi Selatan Mencapai Ratusan Orang",
                    "link": "https://example.com/news/korban-banjir-sulsel",
                    "source": "Kompas",
                    "published_date": "2023-03-28T17:20:00Z",
                    "summary": "Hujan lebat yang terjadi secara terus-menerus di Sulawesi Selatan telah menyebabkan banjir yang mengakibatkan ratusan orang kehilangan tempat tinggal."
                },
                {
                    "title": "Peningkatan Intensitas Hujan Menjadi Penyebab Utama Banjir di Banyak Wilayah",
                    "link": "https://example.com/news/penyebab-banjir-intensitas-hujan",
                    "source": "Kompas",
                    "published_date": "2023-03-25T12:45:00Z",
                    "summary": "Peneliti klimatologi menyampaikan bahwa meningkatnya intensitas hujan belakangan ini menjadi penyebab utama terjadinya banjir di berbagai wilayah di Indonesia."
                },
                {
                    "title": "Aksi Cepat Tanggap: Bantuan untuk Korban Banjir Berlanjut",
                    "link": "https://example.com/news/aksi-cepat-tanggap-banjir",
                    "source": "Kompas",
                    "published_date": "2023-03-23T09:55:00Z",
                    "summary": "Relawan dari berbagai organisasi terus bergerak cepat untuk menyediakan bantuan bagi korban banjir yang terjadi di berbagai daerah."
                }
            ],
            "pagination": {
                "current_page": 1,
                "per_page": 5,
                "total_pages": 20,
                "total_results": 100
            }
        }
    },
    "{'limit': 10, 'page': 1, 'command': 'floods'}": {
        "error": "",
        "response": "{'xml': {'pencarian': {'item': []}}}"
    },
    "{'limit': 10, 'page': 2, 'command': 'banjir'}": {
        "error": "Failed to generate fake response",
        "response": ""
    },
    "{'limit': 10, 'page': 1, 'command': 'banjir Jakarta'}": {
        "error": "Failed to generate fake response",
        "response": ""
    },
    "{'limit': 10, 'page': 1, 'command': 'news'}": {
        "error": "",
        "response": "The 'kompas-search' API is designed to retrieve news articles from Kompas, one of the major news websites in Indonesia. For the given input parameters where 'limit' is set to 10, 'page' is set to 1, and the 'command' is 'news', the API would perform a search for the latest news articles. The 'limit' parameter defines the maximum number of articles to be returned in the response, and in this case, it is limited to 10 articles. The 'page' parameter suggests that the user is requesting the first page of the search results. Typically, the response would include the 10 most recent or relevant news articles pertaining to general news content. Each article in the response is expected to contain details such as the title, summary, publication date, author, and a link to the full article on the Kompas website. The 'command' parameter indicates the subject of the news search; in this case, it is a general search for 'news' without any specific topic filters applied. The actual response would consist of a JSON-formatted list of news articles with their respective details, encapsulated within the 'response' field."
    }
}