{
  "{'seasonid': 2022, 'tournamentid': 188, 'page': 0}": {
    "error": "",
    "response": {
      "league": {
        "id": 188,
        "name": "Aviva Premiership",
        "season": 2022
      },
      "next_matches": [
        {
          "match_id": 11234,
          "home_team": "Exeter Chiefs",
          "away_team": "Saracens",
          "date": "2023-04-15",
          "time": "15:00:00",
          "venue": "Sandy Park"
        },
        {
          "match_id": 11235,
          "home_team": "Sale Sharks",
          "away_team": "Harlequins",
          "date": "2023-04-16",
          "time": "16:30:00",
          "venue": "AJ Bell Stadium"
        },
        {
          "match_id": 11236,
          "home_team": "Wasps",
          "away_team": "Leicester Tigers",
          "date": "2023-04-17",
          "time": "14:00:00",
          "venue": "Ricoh Arena"
        },
        {
          "match_id": 11237,
          "home_team": "Northampton Saints",
          "away_team": "Gloucester Rugby",
          "date": "2023-04-18",
          "time": "19:45:00",
          "venue": "Franklin's Gardens"
        },
        {
          "match_id": 11238,
          "home_team": "Bath Rugby",
          "away_team": "London Irish",
          "date": "2023-04-19",
          "time": "20:00:00",
          "venue": "Recreation Ground"
        }
      ],
      "pagination": {
        "current_page": 0,
        "total_pages": 2,
        "total_matches": 10,
        "matches_per_page": 5
      }
    }
  },
  "{'seasonid': 2022, 'tournamentid': 188, 'page': 1}": {
    "error": "",
    "response": {
      "league": {
        "id": 188,
        "name": "Aviva Premiership",
        "season": 2022
      },
      "next_matches": [
        {
          "match_id": 11239,
          "home_team": "Bristol Bears",
          "away_team": "Worcester Warriors",
          "date": "2023-04-20",
          "time": "18:00:00",
          "venue": "Ashton Gate"
        },
        {
          "match_id": 11240,
          "home_team": "Newcastle Falcons",
          "away_team": "London Wasps",
          "date": "2023-04-21",
          "time": "19:45:00",
          "venue": "Kingston Park"
        },
        {
          "match_id": 11241,
          "home_team": "London Irish",
          "away_team": "Exeter Chiefs",
          "date": "2023-04-22",
          "time": "15:00:00",
          "venue": "Madejski Stadium"
        },
        {
          "match_id": 11242,
          "home_team": "Leicester Tigers",
          "away_team": "Sale Sharks",
          "date": "2023-04-23",
          "time": "15:00:00",
          "venue": "Welford Road Stadium"
        },
        {
          "match_id": 11243,
          "home_team": "Harlequins",
          "away_team": "Bath Rugby",
          "date": "2023-04-24",
          "time": "15:00:00",
          "venue": "Twickenham Stoop"
        }
      ],
      "pagination": {
        "current_page": 1,
        "total_pages": 2,
        "total_matches": 10,
        "matches_per_page": 5
      }
    }
  },
  "{'seasonid': 2525, 'tournamentid': 294, 'page': 0}": {
    "error": "",
    "response": {
      "league": {
        "id": 294,
        "name": "Super Rugby",
        "season": 2525
      },
      "next_matches": [
        {
          "match_id": 21234,
          "home_team": "Crusaders",
          "away_team": "Blues",
          "date": "2525-07-10",
          "time": "19:05:00",
          "venue": "Orangetheory Stadium"
        },
        {
          "match_id": 21235,
          "home_team": "Brumbies",
          "away_team": "Rebels",
          "date": "2525-07-11",
          "time": "19:45:00",
          "venue": "GIO Stadium"
        },
        {
          "match_id": 21236,
          "home_team": "Sharks",
          "away_team": "Lions",
          "date": "2525-07-12",
          "time": "17:10:00",
          "venue": "Kings Park Stadium"
        },
        {
          "match_id": 21237,
          "home_team": "Bulls",
          "away_team": "Stormers",
          "date": "2525-07-13",
          "time": "19:15:00",
          "venue": "Loftus Versfeld Stadium"
        },
        {
          "match_id": 21238,
          "home_team": "Jaguares",
          "away_team": "Highlanders",
          "date": "2525-07-14",
          "time": "20:40:00",
          "venue": "Jos\u00e9 Amalfitani Stadium"
        }
      ],
      "pagination": {
        "current_page": 0,
        "total_pages": 3,
        "total_matches": 15,
        "matches_per_page": 5
      }
    }
  },
  "{'seasonid': 2022, 'tournamentid': 423, 'page': 0}": {
    "error": "",
    "response": {
      "league": {
        "id": 423,
        "name": "National Rugby League - NRL",
        "season": 2022
      },
      "next_matches": [
        {
          "match_id": 21500,
          "home_team": "Melbourne Storm",
          "away_team": "Sydney Roosters",
          "date": "2023-04-08",
          "time": "19:00:00",
          "venue": "AAMI Park"
        },
        {
          "match_id": 21501,
          "home_team": "Brisbane Broncos",
          "away_team": "Canberra Raiders",
          "date": "2023-04-09",
          "time": "16:05:00",
          "venue": "Suncorp Stadium"
        },
        {
          "match_id": 21502,
          "home_team": "Penrith Panthers",
          "away_team": "Newcastle Knights",
          "date": "2023-04-10",
          "time": "19:00:00",
          "venue": "BlueBet Stadium"
        },
        {
          "match_id": 21503,
          "home_team": "Manly Warringah Sea Eagles",
          "away_team": "Parramatta Eels",
          "date": "2023-04-11",
          "time": "19:50:00",
          "venue": "4 Pines Park"
        },
        {
          "match_id": 21504,
          "home_team": "South Sydney Rabbitohs",
          "away_team": "Cronulla-Sutherland Sharks",
          "date": "2023-04-12",
          "time": "20:00:00",
          "venue": "Stadium Australia"
        }
      ],
      "pagination": {
        "current_page": 0,
        "total_pages": 3,
        "total_matches": 15,
        "matches_per_page": 5
      }
    }
  },
  "{'seasonid': 1, 'tournamentid': 423, 'page': 0}": {
    "error": "",
    "response": {
      "league": {
        "id": 423,
        "name": "Super Rugby",
        "season": 2023
      },
      "next_matches": [
        {
          "match_id": 25431,
          "home_team": "Crusaders",
          "away_team": "Blues",
          "date": "2023-05-06",
          "time": "19:05:00",
          "venue": "Orangetheory Stadium"
        },
        {
          "match_id": 25432,
          "home_team": "Brumbies",
          "away_team": "Waratahs",
          "date": "2023-05-07",
          "time": "15:00:00",
          "venue": "GIO Stadium Canberra"
        },
        {
          "match_id": 25433,
          "home_team": "Sharks",
          "away_team": "Stormers",
          "date": "2023-05-07",
          "time": "17:15:00",
          "venue": "Kings Park Stadium"
        },
        {
          "match_id": 25434,
          "home_team": "Jaguares",
          "away_team": "Sunwolves",
          "date": "2023-05-08",
          "time": "20:40:00",
          "venue": "Jos\u00e9 Amalfitani Stadium"
        },
        {
          "match_id": 25435,
          "home_team": "Highlanders",
          "away_team": "Chiefs",
          "date": "2023-05-09",
          "time": "19:05:00",
          "venue": "Forsyth Barr Stadium"
        }
      ],
      "pagination": {
        "current_page": 0,
        "total_pages": 3,
        "total_matches": 15,
        "matches_per_page": 5
      }
    }
  },
  "{'seasonid': 2, 'tournamentid': 424, 'page': 0}": {
    "error": "",
    "response": {
      "league": {
        "id": 424,
        "name": "National Rugby League - NRL",
        "season": 2023
      },
      "next_matches": [
        {
          "match_id": 20456,
          "home_team": "Penrith Panthers",
          "away_team": "Melbourne Storm",
          "date": "2023-09-03",
          "time": "18:00:00",
          "venue": "Panthers Stadium"
        },
        {
          "match_id": 20457,
          "home_team": "Brisbane Broncos",
          "away_team": "Sydney Roosters",
          "date": "2023-09-04",
          "time": "19:30:00",
          "venue": "Suncorp Stadium"
        },
        {
          "match_id": 20458,
          "home_team": "Canberra Raiders",
          "away_team": "New Zealand Warriors",
          "date": "2023-09-05",
          "time": "14:00:00",
          "venue": "GIO Stadium Canberra"
        },
        {
          "match_id": 20459,
          "home_team": "South Sydney Rabbitohs",
          "away_team": "Manly-Warringah Sea Eagles",
          "date": "2023-09-06",
          "time": "16:05:00",
          "venue": "Stadium Australia"
        },
        {
          "match_id": 20460,
          "home_team": "Parramatta Eels",
          "away_team": "North Queensland Cowboys",
          "date": "2023-09-07",
          "time": "20:00:00",
          "venue": "Bankwest Stadium"
        }
      ],
      "pagination": {
        "current_page": 0,
        "total_pages": 3,
        "total_matches": 15,
        "matches_per_page": 5
      }
    }
  },
  "{'seasonid': 2022, 'tournamentid': 294, 'page': 0}": {
    "error": "",
    "response": {
      "league": {
        "id": 294,
        "name": "National Rugby League - NRL",
        "season": 2022
      },
      "next_matches": [
        {
          "match_id": 21001,
          "home_team": "Penrith Panthers",
          "away_team": "Melbourne Storm",
          "date": "2023-04-15",
          "time": "18:00:00",
          "venue": "BlueBet Stadium"
        },
        {
          "match_id": 21002,
          "home_team": "Sydney Roosters",
          "away_team": "Canberra Raiders",
          "date": "2023-04-16",
          "time": "15:00:00",
          "venue": "Sydney Cricket Ground"
        },
        {
          "match_id": 21003,
          "home_team": "South Sydney Rabbitohs",
          "away_team": "Brisbane Broncos",
          "date": "2023-04-17",
          "time": "19:05:00",
          "venue": "Stadium Australia"
        },
        {
          "match_id": 21004,
          "home_team": "Parramatta Eels",
          "away_team": "North Queensland Cowboys",
          "date": "2023-04-18",
          "time": "19:50:00",
          "venue": "Bankwest Stadium"
        },
        {
          "match_id": 21005,
          "home_team": "New Zealand Warriors",
          "away_team": "St. George Illawarra Dragons",
          "date": "2023-04-19",
          "time": "16:00:00",
          "venue": "Mt Smart Stadium"
        }
      ],
      "pagination": {
        "current_page": 0,
        "total_pages": 3,
        "total_matches": 15,
        "matches_per_page": 5
      }
    }
  },
  "{'seasonid': 2023, 'tournamentid': 302, 'page': 0}": {
    "error": "",
    "response": {
      "league": {
        "id": 302,
        "name": "Super Rugby",
        "season": 2023
      },
      "next_matches": [
        {
          "match_id": 12001,
          "home_team": "Crusaders",
          "away_team": "Blues",
          "date": "2023-05-06",
          "time": "19:05:00",
          "venue": "Orangetheory Stadium"
        },
        {
          "match_id": 12002,
          "home_team": "Brumbies",
          "away_team": "Waratahs",
          "date": "2023-05-07",
          "time": "15:45:00",
          "venue": "GIO Stadium"
        },
        {
          "match_id": 12003,
          "home_team": "Stormers",
          "away_team": "Sharks",
          "date": "2023-05-08",
          "time": "17:10:00",
          "venue": "Newlands Stadium"
        },
        {
          "match_id": 12004,
          "home_team": "Jaguares",
          "away_team": "Sunwolves",
          "date": "2023-05-09",
          "time": "20:00:00",
          "venue": "Jos\u00e9 Amalfitani Stadium"
        },
        {
          "match_id": 12005,
          "home_team": "Reds",
          "away_team": "Highlanders",
          "date": "2023-05-10",
          "time": "18:15:00",
          "venue": "Suncorp Stadium"
        }
      ],
      "pagination": {
        "current_page": 0,
        "total_pages": 3,
        "total_matches": 15,
        "matches_per_page": 5
      }
    }
  },
  "{'seasonid': 0, 'tournamentid': 423, 'page': 0}": {
    "error": "",
    "response": {
      "league": {
        "id": 423,
        "name": "Rugby Pro D2",
        "season": 2023
      },
      "next_matches": [
        {
          "match_id": 20481,
          "home_team": "USA Perpignan",
          "away_team": "Vannes",
          "date": "2023-04-25",
          "time": "20:00:00",
          "venue": "Stade Aim\u00e9 Giral"
        },
        {
          "match_id": 20482,
          "home_team": "RC Narbonne",
          "away_team": "AS B\u00e9ziers H\u00e9rault",
          "date": "2023-04-26",
          "time": "18:30:00",
          "venue": "Parc des Sports et de l'Amiti\u00e9"
        },
        {
          "match_id": 20483,
          "home_team": "Montauban",
          "away_team": "Stade Montois",
          "date": "2023-04-27",
          "time": "20:45:00",
          "venue": "Stade de Sapiac"
        },
        {
          "match_id": 20484,
          "home_team": "Provence Rugby",
          "away_team": "Grenoble",
          "date": "2023-04-28",
          "time": "19:00:00",
          "venue": "Stade Maurice David"
        },
        {
          "match_id": 20485,
          "home_team": "US Carcassonne",
          "away_team": "RC Massy",
          "date": "2023-04-29",
          "time": "18:00:00",
          "venue": "Stade Albert-Domec"
        }
      ],
      "pagination": {
        "current_page": 0,
        "total_pages": 3,
        "total_matches": 15,
        "matches_per_page": 5
      }
    }
  },
  "{'seasonid': 2020, 'tournamentid': 10, 'page': 0}": {
    "error": "",
    "response": {
      "league": {
        "id": 10,
        "name": "Super Rugby",
        "season": 2020
      },
      "next_matches": [
        {
          "match_id": 20456,
          "home_team": "Crusaders",
          "away_team": "Blues",
          "date": "2023-04-25",
          "time": "19:00:00",
          "venue": "Orangetheory Stadium"
        },
        {
          "match_id": 20457,
          "home_team": "Brumbies",
          "away_team": "Rebels",
          "date": "2023-04-26",
          "time": "16:45:00",
          "venue": "GIO Stadium Canberra"
        },
        {
          "match_id": 20458,
          "home_team": "Sharks",
          "away_team": "Stormers",
          "date": "2023-04-27",
          "time": "18:10:00",
          "venue": "Kings Park Stadium"
        },
        {
          "match_id": 20459,
          "home_team": "Bulls",
          "away_team": "Lions",
          "date": "2023-04-28",
          "time": "15:05:00",
          "venue": "Loftus Versfeld Stadium"
        },
        {
          "match_id": 20460,
          "home_team": "Waratahs",
          "away_team": "Reds",
          "date": "2023-04-29",
          "time": "19:45:00",
          "venue": "Sydney Cricket Ground"
        }
      ],
      "pagination": {
        "current_page": 0,
        "total_pages": 3,
        "total_matches": 15,
        "matches_per_page": 5
      }
    }
  },
  "{'seasonid': 1, 'tournamentid': 1, 'page': 0}": {
    "error": "",
    "response": {
      "league": {
        "id": 1,
        "name": "Super Rugby",
        "season": 2023
      },
      "next_matches": [
        {
          "match_id": 23456,
          "home_team": "Crusaders",
          "away_team": "Blues",
          "date": "2023-06-01",
          "time": "19:05:00",
          "venue": "Orangetheory Stadium"
        },
        {
          "match_id": 23457,
          "home_team": "Waratahs",
          "away_team": "Reds",
          "date": "2023-06-02",
          "time": "20:45:00",
          "venue": "Sydney Cricket Ground"
        },
        {
          "match_id": 23458,
          "home_team": "Brumbies",
          "away_team": "Rebels",
          "date": "2023-06-03",
          "time": "18:00:00",
          "venue": "GIO Stadium"
        },
        {
          "match_id": 23459,
          "home_team": "Highlanders",
          "away_team": "Hurricanes",
          "date": "2023-06-04",
          "time": "14:35:00",
          "venue": "Forsyth Barr Stadium"
        },
        {
          "match_id": 23460,
          "home_team": "Chiefs",
          "away_team": "Jaguares",
          "date": "2023-06-05",
          "time": "19:05:00",
          "venue": "FMG Stadium Waikato"
        }
      ],
      "pagination": {
        "current_page": 0,
        "total_pages": 3,
        "total_matches": 15,
        "matches_per_page": 5
      }
    }
  },
  "{'seasonid': 5678, 'page': 0, 'tournamentid': 1234}": {
    "error": "",
    "response": {
      "tournament_id": 1234,
      "season_id": 5678,
      "page": 0,
      "upcoming_matches": [
        {
          "match_id": 101,
          "teams": {
            "home": "Team A",
            "away": "Team B"
          },
          "venue": "Stadium XYZ",
          "date_time": "2023-07-05T15:00:00+00:00"
        },
        {
          "match_id": 102,
          "teams": {
            "home": "Team C",
            "away": "Team D"
          },
          "venue": "Stadium ABC",
          "date_time": "2023-07-06T11:00:00+00:00"
        },
        {
          "match_id": 103,
          "teams": {
            "home": "Team E",
            "away": "Team F"
          },
          "venue": "Stadium LMO",
          "date_time": "2023-07-08T19:00:00+00:00"
        }
      ],
      "pagination": {
        "current_page": 0,
        "per_page": 10,
        "total_pages": 5,
        "total_entries": 50
      }
    }
  },
  "{'seasonid': 2022, 'page': 0, 'tournamentid': 1234}": {
    "error": "",
    "response": {
      "tournament_id": 1234,
      "season_id": 2022,
      "page": 0,
      "upcoming_matches": [
        {
          "match_id": 104,
          "teams": {
            "home": "Team G",
            "away": "Team H"
          },
          "venue": "Stadium PQR",
          "date_time": "2023-09-01T10:00:00+00:00"
        },
        {
          "match_id": 105,
          "teams": {
            "home": "Team I",
            "away": "Team J"
          },
          "venue": "Stadium STU",
          "date_time": "2023-09-02T14:00:00+00:00"
        },
        {
          "match_id": 106,
          "teams": {
            "home": "Team K",
            "away": "Team L"
          },
          "venue": "Stadium VWX",
          "date_time": "2023-09-04T09:30:00+00:00"
        }
      ],
      "pagination": {
        "current_page": 0,
        "per_page": 10,
        "total_pages": 4,
        "total_entries": 35
      }
    }
  },
  "{'seasonid': 456, 'page': 0, 'tournamentid': 123}": {
    "error": "",
    "response": {
      "tournament_id": 123,
      "season_id": 456,
      "page": 0,
      "upcoming_matches": [
        {
          "match_id": 201,
          "teams": {
            "home": "Mumbai Masters",
            "away": "Delhi Dashers"
          },
          "venue": "Eden Gardens",
          "date_time": "2023-04-12T16:00:00+00:00"
        },
        {
          "match_id": 202,
          "teams": {
            "home": "Hyderabad Heroes",
            "away": "Punjab Prowlers"
          },
          "venue": "Wankhede Stadium",
          "date_time": "2023-04-13T14:00:00+00:00"
        },
        {
          "match_id": 203,
          "teams": {
            "home": "Kolkata Knights",
            "away": "Gujarat Giants"
          },
          "venue": "MA Chidambaram Stadium",
          "date_time": "2023-04-14T18:00:00+00:00"
        }
      ],
      "pagination": {
        "current_page": 0,
        "per_page": 10,
        "total_pages": 3,
        "total_entries": 27
      }
    }
  },
  "{'seasonid': 2022, 'tournamentid': 12345, 'page': 1}": {
    "error": "",
    "response": {
      "tournament_id": 12345,
      "season_id": 2022,
      "page": 1,
      "upcoming_matches": [
        {
          "match_id": 107,
          "teams": {
            "home": "Chennai Champs",
            "away": "Bangalore Blasters"
          },
          "venue": "M. Chinnaswamy Stadium",
          "date_time": "2023-09-10T13:00:00+00:00"
        },
        {
          "match_id": 108,
          "teams": {
            "home": "Rajasthan Royals",
            "away": "Lucknow Legends"
          },
          "venue": "Sawai Mansingh Stadium",
          "date_time": "2023-09-12T17:00:00+00:00"
        },
        {
          "match_id": 109,
          "teams": {
            "home": "Pune Pioneers",
            "away": "Kanpur Kings"
          },
          "venue": "Maharashtra Cricket Association Stadium",
          "date_time": "2023-09-15T19:30:00+00:00"
        }
      ],
      "pagination": {
        "current_page": 1,
        "per_page": 10,
        "total_pages": 4,
        "total_entries": 35
      }
    }
  },
  "{'seasonid': 2022, 'page': 0, 'tournamentid': 0}": {
    "error": "",
    "response": {
      "tournament_id": 0,
      "season_id": 2022,
      "page": 0,
      "upcoming_matches": [
        {
          "match_id": 107,
          "teams": {
            "home": "Team M",
            "away": "Team N"
          },
          "venue": "Stadium RST",
          "date_time": "2023-09-05T08:00:00+00:00"
        },
        {
          "match_id": 108,
          "teams": {
            "home": "Team O",
            "away": "Team P"
          },
          "venue": "Stadium DEF",
          "date_time": "2023-09-07T16:30:00+00:00"
        },
        {
          "match_id": 109,
          "teams": {
            "home": "Team Q",
            "away": "Team R"
          },
          "venue": "Stadium GHI",
          "date_time": "2023-09-09T12:15:00+00:00"
        }
      ],
      "pagination": {
        "current_page": 0,
        "per_page": 10,
        "total_pages": 3,
        "total_entries": 28
      }
    }
  },
  "{'seasonid': 6789, 'page': 0, 'tournamentid': 12345}": {
    "error": "",
    "response": {
      "tournament_id": 12345,
      "season_id": 6789,
      "page": 0,
      "upcoming_matches": [
        {
          "match_id": 301,
          "teams": {
            "home": "Chennai Challengers",
            "away": "Bangalore Blasters"
          },
          "venue": "M. Chinnaswamy Stadium",
          "date_time": "2023-10-05T13:00:00+00:00"
        },
        {
          "match_id": 302,
          "teams": {
            "home": "Rajasthan Royals",
            "away": "Lucknow Legends"
          },
          "venue": "Sawai Mansingh Stadium",
          "date_time": "2023-10-06T17:00:00+00:00"
        },
        {
          "match_id": 303,
          "teams": {
            "home": "Pune Pioneers",
            "away": "Goa Gladiators"
          },
          "venue": "Maharashtra Cricket Association Stadium",
          "date_time": "2023-10-08T19:30:00+00:00"
        }
      ],
      "pagination": {
        "current_page": 0,
        "per_page": 10,
        "total_pages": 7,
        "total_entries": 70
      }
    }
  },
  "{'seasonid': 2022, 'tournamentid': 1234, 'page': 0}": {
    "error": "",
    "response": {
      "tournament_id": 1234,
      "season_id": 2022,
      "page": 0,
      "upcoming_matches": [
        {
          "match_id": 104,
          "teams": {
            "home": "Team G",
            "away": "Team H"
          },
          "venue": "Stadium PQR",
          "date_time": "2023-09-01T10:00:00+00:00"
        },
        {
          "match_id": 105,
          "teams": {
            "home": "Team I",
            "away": "Team J"
          },
          "venue": "Stadium STU",
          "date_time": "2023-09-02T14:00:00+00:00"
        },
        {
          "match_id": 106,
          "teams": {
            "home": "Team K",
            "away": "Team L"
          },
          "venue": "Stadium VWX",
          "date_time": "2023-09-04T09:30:00+00:00"
        }
      ],
      "pagination": {
        "current_page": 0,
        "per_page": 10,
        "total_pages": 4,
        "total_entries": 35
      }
    }
  }
}