{
  "{'page': '1', 'city': 'San Jose', 'state_code': 'CA'}": {
    "error": "",
    "response": "This API appears to be designed to provide listings or information specific to a location based on the 'page', 'city', and 'state_code' parameters included in the input. Given the information provided, the API call is likely requesting data for the city of San Jose, California (CA). This could pertain to a variety of possible datasets, such as a business directory, real estate listings, job postings, community events, or any other localized service or resource information. The 'page' parameter suggests that the API supports pagination, indicating that the data is extensive enough to require splitting across multiple pages for easier consumption. Therefore, using the provided input parameters, the API would generate a list of the relevant items for San Jose, CA, starting with the first page of results as indicated by 'page': '1'. The structure of the dataset returned, while not specified in the input, would depend on the specific design of the API and its purpose within the tool. The data would be formatted to align with the tool's requirements for display or further interaction by the end-user or system."
  },
  "{'school_level': 'elementary', 'page': '1', 'city': 'San Jose', 'state_code': 'CA'}": {
    "error": "",
    "response": "The API call with the parameters provided is requesting information on elementary schools located in San Jose, California. Given that the 'page' parameter is set to '1', this query is specifically asking for the first page of results from the dataset. This suggests that the API supports pagination, likely due to the extensive nature of the school data, making it easier for users to navigate through a large number of schools in smaller, more manageable subsets of information. The result set returned by the API will include details such as school names, addresses, contact information, and potentially ratings or other metrics relevant to elementary schools in the specified location. This data could be used to assist parents and guardians in making informed decisions about their children's education by providing them with a comprehensive list of available elementary schools in San Jose along with key information about each institution. The expected JSON response will be structured in a way that it can be easily interpreted by the application or end users, with clear delineation of the different pieces of information on each school and potentially links for users to find out more or engage with the school systems directly, such as enrollment processes or visiting the school's website."
  },
  "{'school_level': 'elementary', 'page': '1', 'city': 'San Jose'}": {
    "error": "",
    "response": "This API call is designed to provide a listing or information about elementary schools in the specified location. With the parameters 'school_level': 'elementary', 'page': '1', and 'city': 'San Jose', the API is expected to query a database and return a tailored set of results relevant to elementary schools situated in the city of San Jose. The 'page' parameter indicates that pagination is implemented, implying the potential for numerous entries that may be delivered across multiple pages. The end-user is currently seeking the first page of results, which would typically include basic contact information, ratings, or details such as the size or district of each school. This data can be used by parents, educational researchers, or policymakers to analyze educational opportunities and infrastructure within the city. Any additional metadata about the schools, such as enrollment numbers, academic programs offered, or extracurricular activities, might also be included within the result set, depending on the richness of the database and the level of detail the API is designed to return. The information is most likely intended for a user-friendly interface that would allow for easy navigation, comparison, and selection of schools based on the user\u2019s needs or interests."
  },
  "{'school_level': 'all', 'page': '1', 'city': 'San Jose', 'state_code': 'CA'}": {
    "error": "",
    "response": "The API request received indicates a search for schools in the city of San Jose, California, across all educational levels. With the parameters provided, such as 'school_level' set to 'all', 'page' set to '1', 'city' set to 'San Jose', and 'state_code' set to 'CA', the API would retrieve a comprehensive list of educational institutions within the specified location. This list could include a variety of school types, ranging from elementary and middle schools to high schools and institutions of higher education like colleges and universities. The 'page' parameter implies that the amount of data available is quite substantial, and hence it is organized into pages to facilitate a user-friendly navigation experience. For the initial response, the first page of data will be presented, which typically would provide an overview of each school, information such as the school name, address, contact details, and a brief description of the school's programs and offerings. Such data can be valuable for parents evaluating educational opportunities, educational researchers, or individuals looking for community-based education resources. The returned information would be structured in a way that allows the API to be used either directly by end-users looking for schools or by another system component that might need to process the data further, such as a mapping tool or an educational services recommendation system."
  },
  "{'school_level': 'middle', 'page': '1', 'city': 'San Jose', 'state_code': 'CA'}": {
    "error": "",
    "response": "Based on the provided input parameters, this API call is intended to retrieve information regarding middle school education in the city of San Jose, California (CA). The 'school_level' parameter specifies the educational stage of 'middle', which likely refers to middle schools in the specified geographic location. The 'page' parameter, set to '1', indicates that the API supports pagination and is currently requesting the first page of results. The combination of 'city' and 'state_code' parameters further refines the search to the designated area, ensuring that only relevant educational institutions are included in the response. Consequently, the expected output would be a list or directory of middle schools located in San Jose, CA, presented in a structured format suitable for display, analysis, or integration within the tool's ecosystem. This could include information such as school names, addresses, contact details, enrollment numbers, ratings, and possibly links to additional resources such as school websites or performance reports. The precise content of this output depends on what the specialized tool is meant to offer; for example, it may cater to parents researching potential schools for their children, real estate services highlighting school zones, or educational authorities compiling statistical data on educational institutions within a given area."
  },
  "{'school_level': 'high', 'page': '1', 'city': 'San Jose', 'state_code': 'CA'}": {
    "error": "",
    "response": "Based on the provided API input parameters, the API is being tasked to retrieve information on high schools located in San Jose, California (CA). The parameters indicate that this query is specifically interested in 'high' school level educational institutions. In conjunction with the 'page' parameter set to '1', it suggests the results are likely paginated and the user is requesting the first set of data entries. The information returned by this API call could encompass a variety of details including the names of high schools, addresses, district information, student body size, rankings, and contact information for the schools. Additionally, the dataset could provide insights into extracurricular activities available, academic programs offered, and performance statistics such as graduation rates or standardized test scores. If the tool is designed for comprehensive education-related searches, other potential data points might also include staff qualifications, school facilities, user reviews, and admissions criteria. This information can serve parents, students, and educational researchers who require an understanding of the high school education landscape within San Jose, including those considering relocation or engaging in scholarly assessment of educational institutions within a given locale. The provided response would be formatted according to the designated specifications for the tool, ensuring a coherent and structured presentation of all high school data pertinent to the user's search criteria."
  },
  "{'page': '1', 'city': 'Pleasanton', 'school_level': 'all', 'state_code': 'CA'}": {
    "error": "",
    "response": {
      "schools": [
        {
          "name": "Pleasanton Middle School",
          "type": "Public",
          "grades": "6-8",
          "address": "5001 Case Ave, Pleasanton, CA 94566",
          "phone": "(925) 123-4567",
          "website": "http://pleasantonmiddleschool.edu"
        },
        {
          "name": "Fairlands Elementary School",
          "type": "Public",
          "grades": "K-5",
          "address": "4151 W Las Positas Blvd, Pleasanton, CA 94588",
          "phone": "(925) 234-5678",
          "website": "http://fairlandselementary.edu"
        },
        {
          "name": "Amador Valley High School",
          "type": "Public",
          "grades": "9-12",
          "address": "1155 Santa Rita Rd, Pleasanton, CA 94566",
          "phone": "(925) 345-6789",
          "website": "http://amadorvalleyhigh.edu"
        },
        {
          "name": "Foothill High School",
          "type": "Public",
          "grades": "9-12",
          "address": "4375 Foothill Rd, Pleasanton, CA 94588",
          "phone": "(925) 456-7890",
          "website": "http://foothillhigh.edu"
        },
        {
          "name": "Harvest Park Middle School",
          "type": "Public",
          "grades": "6-8",
          "address": "4900 Valley Ave, Pleasanton, CA 94566",
          "phone": "(925) 567-8901",
          "website": "http://harvestparkmiddleschool.edu"
        }
      ],
      "pagination": {
        "current_page": "1",
        "per_page": 5,
        "total_pages": 2,
        "total_entries": 9
      }
    }
  },
  "{'page': '1', 'city': 'Pleasanton', 'state_code': 'CA', 'school_level': 'all'}": {
    "error": "",
    "response": {
      "schools": [
        {
          "name": "Pleasanton Middle School",
          "type": "Public",
          "grades": "6-8",
          "address": "5001 Case Ave, Pleasanton, CA 94566",
          "phone": "(925) 123-4567",
          "website": "http://pleasantonmiddleschool.edu"
        },
        {
          "name": "Fairlands Elementary School",
          "type": "Public",
          "grades": "K-5",
          "address": "4151 W Las Positas Blvd, Pleasanton, CA 94588",
          "phone": "(925) 234-5678",
          "website": "http://fairlandselementary.edu"
        },
        {
          "name": "Amador Valley High School",
          "type": "Public",
          "grades": "9-12",
          "address": "1155 Santa Rita Rd, Pleasanton, CA 94566",
          "phone": "(925) 345-6789",
          "website": "http://amadorvalleyhigh.edu"
        },
        {
          "name": "Foothill High School",
          "type": "Public",
          "grades": "9-12",
          "address": "4375 Foothill Rd, Pleasanton, CA 94588",
          "phone": "(925) 456-7890",
          "website": "http://foothillhigh.edu"
        },
        {
          "name": "Harvest Park Middle School",
          "type": "Public",
          "grades": "6-8",
          "address": "4900 Valley Ave, Pleasanton, CA 94566",
          "phone": "(925) 567-8901",
          "website": "http://harvestparkmiddleschool.edu"
        }
      ],
      "pagination": {
        "current_page": "1",
        "per_page": 5,
        "total_pages": 2,
        "total_entries": 9
      }
    }
  },
  "{'page': '1', 'city': 'Pleasanton', 'school_level': 'elementary', 'state_code': 'CA'}": {
    "error": "",
    "response": {
      "schools": [
        {
          "name": "Fairlands Elementary School",
          "type": "Public",
          "grades": "K-5",
          "address": "4151 W Las Positas Blvd, Pleasanton, CA 94588",
          "phone": "(925) 234-5678",
          "website": "http://fairlandselementary.edu"
        },
        {
          "name": "Walnut Grove Elementary School",
          "type": "Public",
          "grades": "K-5",
          "address": "1999 Harvest Rd, Pleasanton, CA 94566",
          "phone": "(925) 123-4568",
          "website": "http://walnutgroveelementary.edu"
        },
        {
          "name": "Donlon Elementary School",
          "type": "Public",
          "grades": "TK-5",
          "address": "4150 Dorman Rd, Pleasanton, CA 94588",
          "phone": "(925) 321-4321",
          "website": "http://donlonelementary.edu"
        },
        {
          "name": "Valley View Elementary School",
          "type": "Public",
          "grades": "K-5",
          "address": "480 Adams Way, Pleasanton, CA 94566",
          "phone": "(925) 432-1234",
          "website": "http://valleyviewelementary.edu"
        },
        {
          "name": "Hearst Elementary School",
          "type": "Public",
          "grades": "K-5",
          "address": "5301 Case Ave, Pleasanton, CA 94566",
          "phone": "(925) 234-1234",
          "website": "http://hearstelementary.edu"
        }
      ],
      "pagination": {
        "current_page": "1",
        "per_page": 5,
        "total_pages": 1,
        "total_entries": 5
      }
    }
  },
  "{'page': '1', 'city': 'Pleasanton', 'school_level': '', 'state_code': 'CA'}": {
    "error": "",
    "response": {
      "schools": [
        {
          "name": "Pleasanton Middle School",
          "type": "Public",
          "grades": "6-8",
          "address": "5001 Case Ave, Pleasanton, CA 94566",
          "phone": "(925) 123-4567",
          "website": "http://pleasantonmiddleschool.edu"
        },
        {
          "name": "Fairlands Elementary School",
          "type": "Public",
          "grades": "K-5",
          "address": "4151 W Las Positas Blvd, Pleasanton, CA 94588",
          "phone": "(925) 234-5678",
          "website": "http://fairlandselementary.edu"
        },
        {
          "name": "Amador Valley High School",
          "type": "Public",
          "grades": "9-12",
          "address": "1155 Santa Rita Rd, Pleasanton, CA 94566",
          "phone": "(925) 345-6789",
          "website": "http://amadorvalleyhigh.edu"
        },
        {
          "name": "Foothill High School",
          "type": "Public",
          "grades": "9-12",
          "address": "4375 Foothill Rd, Pleasanton, CA 94588",
          "phone": "(925) 456-7890",
          "website": "http://foothillhigh.edu"
        },
        {
          "name": "Harvest Park Middle School",
          "type": "Public",
          "grades": "6-8",
          "address": "4900 Valley Ave, Pleasanton, CA 94566",
          "phone": "(925) 567-8901",
          "website": "http://harvestparkmiddleschool.edu"
        }
      ],
      "pagination": {
        "current_page": "1",
        "per_page": 5,
        "total_pages": 2,
        "total_entries": 9
      }
    }
  }
}