{
    "{'by': 'genre', 'q': 'indie'}": {
        "error": "",
        "response": {
            "metadata": {
                "limit": 20,
                "next": null,
                "offset": 0,
                "total": 0
            },
            "results": []
        }
    },
    "{'by': 'play_count_increase_ratio', 'q': 'top'}": {
        "error": "",
        "response": {
            "metadata": {
                "limit": 20,
                "next": null,
                "offset": 0,
                "total": 0
            },
            "results": []
        }
    },
    "{'by': 'genres', 'q': 'indie'}": {
        "error": "",
        "response": {
            "metadata": {
                "limit": 20,
                "next": null,
                "offset": 0,
                "total": 0
            },
            "results": []
        }
    },
    "{'by': '', 'q': ''}": {
        "error": "",
        "response": "Provide at least two characters"
    },
    "{'by': 'genre', 'q': 'indie rock'}": {
        "error": "",
        "response": {
            "metadata": {
                "limit": 20,
                "next": null,
                "offset": 0,
                "total": 0
            },
            "results": []
        }
    },
    "{'by': 'trackname', 'q': 'indie party'}": {
        "error": "",
        "response": {
            "metadata": {
                "limit": 20,
                "next": null,
                "offset": 0,
                "total": 0
            },
            "results": []
        }
    },
    "{'by': 'artistname', 'q': 'indie'}": {
        "error": "",
        "response": {
            "metadata": {
                "limit": 20,
                "next": null,
                "offset": 0,
                "total": 0
            },
            "results": []
        }
    },
    "{'by': 'trackname', 'q': 'indie'}": {
        "error": "",
        "response": {
            "metadata": {
                "limit": 20,
                "next": null,
                "offset": 0,
                "total": 0
            },
            "results": []
        }
    },
    "{'by': 'genre', 'q': 'alternative'}": {
        "error": "",
        "response": {
            "metadata": {
                "limit": 20,
                "next": null,
                "offset": 0,
                "total": 0
            },
            "results": []
        }
    },
    "{'by': 'trackname', 'q': 'lively'}": {
        "error": "",
        "response": {
            "metadata": {
                "limit": 20,
                "next": null,
                "offset": 0,
                "total": 0
            },
            "results": []
        }
    },
    "{'by': 'artistname', 'q': 'Indie'}": {
        "error": "",
        "response": {
            "metadata": {
                "limit": 20,
                "next": null,
                "offset": 0,
                "total": 0
            },
            "results": []
        }
    },
    "{'by': 'label', 'q': 'Indie'}": {
        "error": "",
        "response": {
            "metadata": {
                "limit": 20,
                "next": null,
                "offset": 0,
                "total": 0
            },
            "results": []
        }
    },
    "{'by': 'genre', 'q': 'rock'}": {
        "error": "",
        "response": {
            "metadata": {
                "limit": 20,
                "next": null,
                "offset": 0,
                "total": 0
            },
            "results": []
        }
    },
    "{'by': 'genre', 'q': 'pop'}": {
        "error": "",
        "response": {
            "metadata": {
                "limit": 20,
                "next": null,
                "offset": 0,
                "total": 0
            },
            "results": []
        }
    },
    "{'by': 'release_date', 'q': 'streamed'}": {
        "error": "",
        "response": {
            "metadata": {
                "limit": 20,
                "next": null,
                "offset": 0,
                "total": 0
            },
            "results": []
        }
    },
    "{'by': 'trackname', 'q': 'classic indie songs'}": {
        "error": "",
        "response": {
            "metadata": {
                "limit": 20,
                "next": null,
                "offset": 0,
                "total": 0
            },
            "results": []
        }
    },
    "{'by': 'trackname', 'q': 'Hotel California'}": {
        "error": "",
        "response": {
            "metadata": {
                "limit": 20,
                "next": null,
                "offset": 0,
                "total": 0
            },
            "results": []
        }
    },
    "{'by': 'artistname', 'q': 'Eagles'}": {
        "error": "",
        "response": {
            "metadata": {
                "limit": 20,
                "next": null,
                "offset": 0,
                "total": 0
            },
            "results": []
        }
    },
    "{'by': 'label', 'q': 'Eagles'}": {
        "error": "",
        "response": {
            "metadata": {
                "limit": 20,
                "next": null,
                "offset": 0,
                "total": 0
            },
            "results": []
        }
    },
    "{'by': 'label', 'q': 'Asylum'}": {
        "error": "",
        "response": {
            "metadata": {
                "limit": 20,
                "next": null,
                "offset": 0,
                "total": 0
            },
            "results": []
        }
    },
    "{'by': 'genre', 'q': 'classic rock'}": {
        "error": "",
        "response": {
            "metadata": {
                "limit": 20,
                "next": null,
                "offset": 0,
                "total": 0
            },
            "results": []
        }
    },
    "{'by': 'genre', 'q': 'classic'}": {
        "error": "",
        "response": {
            "metadata": {
                "limit": 20,
                "next": null,
                "offset": 0,
                "total": 0
            },
            "results": []
        }
    },
    "{'by': 'trackname', 'q': 'genre'}": {
        "error": "",
        "response": {
            "metadata": {
                "limit": 20,
                "next": null,
                "offset": 0,
                "total": 0
            },
            "results": []
        }
    },
    "{'by': 'genre', 'q': 'independent'}": {
        "error": "",
        "response": {
            "metadata": {
                "limit": 20,
                "next": null,
                "offset": 0,
                "total": 0
            },
            "results": []
        }
    },
    "{'by': 'genre', 'q': 'love'}": {
        "error": "",
        "response": {
            "metadata": {
                "limit": 20,
                "next": null,
                "offset": 0,
                "total": 0
            },
            "results": []
        }
    },
    "{'by': 'track name', 'q': 'indie'}": {
        "error": "",
        "response": {
            "metadata": {
                "limit": 20,
                "next": null,
                "offset": 0,
                "total": 0
            },
            "results": []
        }
    },
    "{'by': 'indie', 'q': 'party'}": {
        "error": "",
        "response": {
            "metadata": {
                "limit": 20,
                "next": null,
                "offset": 0,
                "total": 0
            },
            "results": []
        }
    },
    "{'by': 'indie songs', 'q': 'party'}": {
        "error": "",
        "response": {
            "metadata": {
                "limit": 20,
                "next": null,
                "offset": 0,
                "total": 0
            },
            "results": []
        }
    },
    "{'by': 'indie', 'q': 'music'}": {
        "error": "",
        "response": {
            "metadata": {
                "limit": 20,
                "next": null,
                "offset": 0,
                "total": 0
            },
            "results": []
        }
    },
    "{'by': 'artist name', 'q': 'indie'}": {
        "error": "",
        "response": {
            "metadata": {
                "limit": 20,
                "next": null,
                "offset": 0,
                "total": 0
            },
            "results": []
        }
    },
    "{'by': 'indie', 'q': 'indie'}": {
        "error": "",
        "response": {
            "metadata": {
                "limit": 20,
                "next": null,
                "offset": 0,
                "total": 0
            },
            "results": []
        }
    },
    "{'by': 'track_name, artist_name, genre', 'q': ''}": {
        "error": "",
        "response": "Provide at least two characters"
    },
    "{'by': 'track name, artist name, genre', 'q': ''}": {
        "error": "",
        "response": "Provide at least two characters"
    },
    "{'by': 'track name, artist name, label, release date, ISRC, composer name, genre', 'q': 'indie songs'}": {
        "error": "",
        "response": {
            "metadata": {
                "limit": 20,
                "next": null,
                "offset": 0,
                "total": 0
            },
            "results": []
        }
    },
    "{'by': 'track name, artist name, label, release date, ISRC, composer name, genre', 'q': 'indie'}": {
        "error": "",
        "response": {
            "metadata": {
                "limit": 20,
                "next": null,
                "offset": 0,
                "total": 0
            },
            "results": []
        }
    },
    "{'by': 'track name, artist name, label, release date, ISRC, composer name, genre', 'q': ''}": {
        "error": "",
        "response": "Provide at least two characters"
    },
    "{'by': 'track name, artist name, genre', 'q': 'indie'}": {
        "error": "",
        "response": {
            "metadata": {
                "limit": 20,
                "next": null,
                "offset": 0,
                "total": 0
            },
            "results": []
        }
    },
    "{'by': 'track_name', 'q': 'indie music'}": {
        "error": "",
        "response": {
            "metadata": {
                "limit": 20,
                "next": null,
                "offset": 0,
                "total": 0
            },
            "results": []
        }
    },
    "{'by': 'track_name', 'q': 'indie'}": {
        "error": "",
        "response": {
            "metadata": {
                "limit": 20,
                "next": null,
                "offset": 0,
                "total": 0
            },
            "results": []
        }
    },
    "{'by': 'track_name', 'q': 'indie songs'}": {
        "error": "",
        "response": {
            "metadata": {
                "limit": 20,
                "next": null,
                "offset": 0,
                "total": 0
            },
            "results": []
        }
    },
    "{'by': 'track_name', 'q': 'party'}": {
        "error": "",
        "response": {
            "metadata": {
                "limit": 20,
                "next": null,
                "offset": 0,
                "total": 0
            },
            "results": []
        }
    },
    "{'by': 'artist_name', 'q': 'party'}": {
        "error": "",
        "response": {
            "metadata": {
                "limit": 20,
                "next": null,
                "offset": 0,
                "total": 0
            },
            "results": []
        }
    },
    "{'by': 'genre', 'q': 'party'}": {
        "error": "",
        "response": {
            "metadata": {
                "limit": 20,
                "next": null,
                "offset": 0,
                "total": 0
            },
            "results": []
        }
    },
    "{'by': 'trackname', 'q': 'sample_song'}": {
        "error": "",
        "response": {
            "metadata": {
                "limit": 20,
                "next": "http://api.example.com/v1/songs?by=trackname&q=sample_song&offset=20",
                "offset": 0,
                "total": 150
            },
            "results": [
                {
                    "trackname": "Sample Song Serenade",
                    "artist_name": "The Melodic Example",
                    "label": "Harmony House",
                    "release_date": "2021-06-15",
                    "ISRC": "US-S1Z-21-00001",
                    "composer_name": "Johann Note",
                    "genre": "Indie Pop",
                    "play_count": "1500",
                    "play_count_increase_ratio": "0.10"
                },
                {
                    "trackname": "Sample of Harmonics",
                    "artist_name": "Acoustic Innovations",
                    "label": "Indie Soundwaves",
                    "release_date": "2022-09-20",
                    "ISRC": "US-Q2D-22-08245",
                    "composer_name": "Elena Strum",
                    "genre": "Alternative Rock",
                    "play_count": "3000",
                    "play_count_increase_ratio": "0.15"
                },
                {
                    "trackname": "Samplistic Melody",
                    "artist_name": "Pure Vocals",
                    "label": "Vibrant Tunes Ltd.",
                    "release_date": "2020-12-11",
                    "ISRC": "GB-PV9-20-09876",
                    "composer_name": "Clara Keys",
                    "genre": "Indie Folk",
                    "play_count": "5000",
                    "play_count_increase_ratio": "0.18"
                },
                {
                    "trackname": "Rhythms Sampled",
                    "artist_name": "Drum & Space",
                    "label": "Cosmic Beats Recordings",
                    "release_date": "2019-04-27",
                    "ISRC": "CA-DBS-19-05243",
                    "composer_name": "Beat Master",
                    "genre": "Indie Electronic",
                    "play_count": "2000",
                    "play_count_increase_ratio": "0.08"
                }
            ]
        }
    },
    "{'by': 'trackname', 'q': 'Into the Horizon'}": {
        "error": "",
        "response": {
            "metadata": {
                "limit": 20,
                "next": null,
                "offset": 0,
                "total": 1
            },
            "results": [
                {
                    "track_name": "Into the Horizon",
                    "artist_name": "Bright Visions",
                    "label": "Sunset Records",
                    "release_date": "2021-06-15",
                    "ISRC": "USDY52100458",
                    "composer_name": "Elena Jane",
                    "genre": "Indie Pop",
                    "play_count": 15000,
                    "play_count_increase_ratio": 0.05,
                    "daily_stats": {
                        "2023-04-02": 750,
                        "2023-04-01": 740,
                        "2023-03-31": 730
                    },
                    "weekly_stats": {
                        "week_13": 5250,
                        "week_12": 5100,
                        "week_11": 4980
                    }
                }
            ]
        }
    }
}