{
    "{'services': 'netflix,hulu,prime', 'country': 'US', 'show_type': 'series'}": {
        "error": "",
        "response": {
            "results": [
                {
                    "title": "Stranger Things",
                    "IMDbID": "tt4574334",
                    "TMDbID": "66732",
                    "IMDbRating": "8.7",
                    "link": {
                        "netflix": "https://www.netflix.com/title/80057281",
                        "hulu": "",
                        "prime": ""
                    },
                    "cast": [
                        "Winona Ryder",
                        "David Harbour",
                        "Finn Wolfhard",
                        "Millie Bobby Brown",
                        "Gaten Matarazzo"
                    ],
                    "runtime": "55 minutes",
                    "poster": "https://image.tmdb.org/t/p/original/x2LSRK2Cm7MZhjluni1msVJ3wDF.jpg",
                    "availability": {
                        "US": {
                            "netflix": true,
                            "hulu": false,
                            "prime": false
                        }
                    }
                },
                {
                    "title": "The Handmaid's Tale",
                    "IMDbID": "tt5834204",
                    "TMDbID": "69478",
                    "IMDbRating": "8.4",
                    "link": {
                        "netflix": "",
                        "hulu": "https://www.hulu.com/series/the-handmaids-tale",
                        "prime": ""
                    },
                    "cast": [
                        "Elisabeth Moss",
                        "Yvonne Strahovski",
                        "Joseph Fiennes",
                        "Ann Dowd"
                    ],
                    "runtime": "50 minutes",
                    "poster": "https://image.tmdb.org/t/p/original/oIkxqt6ug5zT5ZSUUyc1Iqopf02.jpg",
                    "availability": {
                        "US": {
                            "netflix": false,
                            "hulu": true,
                            "prime": false
                        }
                    }
                },
                {
                    "title": "Jack Ryan",
                    "IMDbID": "tt5057054",
                    "TMDbID": "76669",
                    "IMDbRating": "8.1",
                    "link": {
                        "netflix": "",
                        "hulu": "",
                        "prime": "https://www.primevideo.com/detail/Tom-Clancys-Jack-Ryan"
                    },
                    "cast": [
                        "John Krasinski",
                        "Wendell Pierce",
                        "Abbie Cornish",
                        "Ali Suliman"
                    ],
                    "runtime": "60 minutes",
                    "poster": "https://image.tmdb.org/t/p/original/1raUrQr8Y2tSYjTDbk8wfWGKTmX.jpg",
                    "availability": {
                        "US": {
                            "netflix": false,
                            "hulu": false,
                            "prime": true
                        }
                    }
                }
            ],
            "pagination": {
                "current_page": 1,
                "items_per_page": 8,
                "total_pages": 125,
                "total_items": 1000
            }
        }
    },
    "{'services': 'netflix,hulu,amazon_prime_video', 'country': 'US', 'keyword': 'zombie', 'year_min': 2000, 'year_max': 2025}": {
        "error": "",
        "response": {
            "results": [
                {
                    "title": "The Walking Dead",
                    "IMDbID": "tt1520211",
                    "TMDbID": "1402",
                    "IMDbRating": "8.2",
                    "link": {
                        "netflix": "https://www.netflix.com/title/70177057",
                        "hulu": "https://www.hulu.com/series/the-walking-dead",
                        "amazon_prime_video": ""
                    },
                    "cast": [
                        "Andrew Lincoln",
                        "Norman Reedus",
                        "Melissa McBride",
                        "Danai Gurira"
                    ],
                    "runtime": "44 minutes",
                    "poster": "https://image.tmdb.org/t/p/original/reKs8y4mPwPkZG99ZpbKRhBPKsX.jpg",
                    "availability": {
                        "US": {
                            "netflix": true,
                            "hulu": true,
                            "amazon_prime_video": false
                        }
                    }
                },
                {
                    "title": "Santa Clarita Diet",
                    "IMDbID": "tt5580540",
                    "TMDbID": "66732",
                    "IMDbRating": "7.8",
                    "link": {
                        "netflix": "https://www.netflix.com/title/80095815",
                        "hulu": "",
                        "amazon_prime_video": ""
                    },
                    "cast": [
                        "Drew Barrymore",
                        "Timothy Olyphant",
                        "Liv Hewson"
                    ],
                    "runtime": "30 minutes",
                    "poster": "https://image.tmdb.org/t/p/original/5clGkug7Gj7k6fBp6pGlEdbkAfO.jpg",
                    "availability": {
                        "US": {
                            "netflix": true,
                            "hulu": false,
                            "amazon_prime_video": false
                        }
                    }
                },
                {
                    "title": "iZombie",
                    "IMDbID": "tt3501584",
                    "TMDbID": "60866",
                    "IMDbRating": "7.9",
                    "link": {
                        "netflix": "https://www.netflix.com/title/80027159",
                        "hulu": "",
                        "amazon_prime_video": ""
                    },
                    "cast": [
                        "Rose McIver",
                        "Malcolm Goodwin",
                        "Rahul Kohli",
                        "Robert Buckley"
                    ],
                    "runtime": "42 minutes",
                    "poster": "https://image.tmdb.org/t/p/original/mg9h3o5xZzERpOZ9RbOLcEz9Gu8.jpg",
                    "availability": {
                        "US": {
                            "netflix": true,
                            "hulu": false,
                            "amazon_prime_video": false
                        }
                    }
                },
                {
                    "title": "Black Summer",
                    "IMDbID": "tt8923854",
                    "TMDbID": "85937",
                    "IMDbRating": "6.4",
                    "link": {
                        "netflix": "https://www.netflix.com/title/80198988",
                        "hulu": "",
                        "amazon_prime_video": ""
                    },
                    "cast": [
                        "Jaime King",
                        "Justin Chu Cary",
                        "Christine Lee"
                    ],
                    "runtime": "40 minutes",
                    "poster": "https://image.tmdb.org/t/p/original/sqPf1p7g0Hgt1l7HlnjNgHoFW5B.jpg",
                    "availability": {
                        "US": {
                            "netflix": true,
                            "hulu": false,
                            "amazon_prime_video": false
                        }
                    }
                }
            ],
            "pagination": {
                "current_page": 1,
                "items_per_page": 8,
                "total_pages": 3,
                "total_items": 22
            }
        }
    },
    "{'services': 'netflix,prime,hulu', 'country': 'us', 'show_type': 'series'}": {
        "error": "",
        "response": {
            "results": [
                {
                    "title": "Breaking Bad",
                    "IMDbID": "tt0903747",
                    "TMDbID": "1396",
                    "IMDbRating": "9.5",
                    "link": {
                        "netflix": "https://www.netflix.com/title/70143836",
                        "hulu": "",
                        "prime": "https://www.primevideo.com/detail/Breaking-Bad/0I1DOZ0Y8CD8MPPUEVHJHJ8WSQ"
                    },
                    "cast": [
                        "Bryan Cranston",
                        "Aaron Paul",
                        "Anna Gunn",
                        "Dean Norris",
                        "Betsy Brandt"
                    ],
                    "runtime": "47 minutes",
                    "poster": "https://image.tmdb.org/t/p/original/ggFHVNu6YYI5L9pCfOacjizRGt.jpg",
                    "availability": {
                        "US": {
                            "netflix": true,
                            "hulu": false,
                            "prime": true
                        }
                    }
                },
                {
                    "title": "The Mandalorian",
                    "IMDbID": "tt8111088",
                    "TMDbID": "82856",
                    "IMDbRating": "8.8",
                    "link": {
                        "netflix": "",
                        "hulu": "",
                        "prime": ""
                    },
                    "cast": [
                        "Pedro Pascal",
                        "Carl Weathers",
                        "Gina Carano",
                        "Giancarlo Esposito"
                    ],
                    "runtime": "40 minutes",
                    "poster": "https://image.tmdb.org/t/p/original/sWgBv7LV2PRoQgkxwlibdGXKz1S.jpg",
                    "availability": {
                        "US": {
                            "netflix": false,
                            "hulu": false,
                            "prime": false
                        }
                    }
                },
                {
                    "title": "The Crown",
                    "IMDbID": "tt4786824",
                    "TMDbID": "65494",
                    "IMDbRating": "8.7",
                    "link": {
                        "netflix": "https://www.netflix.com/title/80025678",
                        "hulu": "",
                        "prime": ""
                    },
                    "cast": [
                        "Olivia Colman",
                        "Helena Bonham Carter",
                        "Tobias Menzies",
                        "Ben Daniels"
                    ],
                    "runtime": "58 minutes",
                    "poster": "https://image.tmdb.org/t/p/original/wgqLg0tosngYDh2X30J61oWuDOt.jpg",
                    "availability": {
                        "US": {
                            "netflix": true,
                            "hulu": false,
                            "prime": false
                        }
                    }
                }
            ],
            "pagination": {
                "current_page": 1,
                "items_per_page": 8,
                "total_pages": 250,
                "total_items": 2000
            }
        }
    },
    "{'title': 'Friends', 'country': 'us', 'show_type': 'series'}": {
        "error": "",
        "response": {
            "results": [
                {
                    "title": "Friends",
                    "IMDbID": "tt0108778",
                    "TMDbID": "1668",
                    "IMDbRating": "8.9",
                    "link": {
                        "netflix": "https://www.netflix.com/title/70153404",
                        "hulu": "",
                        "prime": "https://www.primevideo.com/detail/Friends/0IMOE9M0KZ6NGU984HWKQVP2EU",
                        "hbo": "https://www.hbomax.com/series/urn:hbo:series:GXdlcggagzALDwwEAAAAC",
                        "disney": ""
                    },
                    "cast": [
                        "Jennifer Aniston",
                        "Courteney Cox",
                        "Lisa Kudrow",
                        "Matt LeBlanc",
                        "Matthew Perry",
                        "David Schwimmer"
                    ],
                    "runtime": "22 minutes",
                    "poster": "https://image.tmdb.org/t/p/original/f496cm9enuEsZkSPzCwnTESEK5s.jpg",
                    "availability": {
                        "us": {
                            "netflix": false,
                            "hulu": false,
                            "prime": true,
                            "hbo": true,
                            "disney": false
                        }
                    }
                }
            ],
            "pagination": {
                "current_page": 1,
                "items_per_page": 8,
                "total_pages": 1,
                "total_items": 1
            }
        }
    },
    "{'services': 'Netflix,Prime Video,Hulu', 'country': 'US', 'show_type': 'series'}": {
        "error": "",
        "response": {
            "results": [
                {
                    "title": "Breaking Bad",
                    "IMDbID": "tt0903747",
                    "TMDbID": "1396",
                    "IMDbRating": "9.5",
                    "link": {
                        "Netflix": "https://www.netflix.com/title/70143836",
                        "Hulu": "",
                        "Prime Video": "https://www.primevideo.com/detail/Breaking-Bad/0I1DOBAZO8K8TUNTZZAC8JLGUH"
                    },
                    "cast": [
                        "Bryan Cranston",
                        "Aaron Paul",
                        "Anna Gunn",
                        "Dean Norris",
                        "Betsy Brandt"
                    ],
                    "runtime": "47 minutes",
                    "poster": "https://image.tmdb.org/t/p/original/ggFHVNu6YYI5L9pCfOacjizRGt.jpg",
                    "availability": {
                        "US": {
                            "Netflix": true,
                            "Hulu": false,
                            "Prime Video": true
                        }
                    }
                },
                {
                    "title": "The Boys",
                    "IMDbID": "tt1190634",
                    "TMDbID": "76479",
                    "IMDbRating": "8.7",
                    "link": {
                        "Netflix": "",
                        "Hulu": "",
                        "Prime Video": "https://www.primevideo.com/detail/The-Boys/0KRGHGZCHKS920PKZ5C6FMS0M3"
                    },
                    "cast": [
                        "Karl Urban",
                        "Jack Quaid",
                        "Antony Starr",
                        "Erin Moriarty",
                        "Dominique McElligott"
                    ],
                    "runtime": "60 minutes",
                    "poster": "https://image.tmdb.org/t/p/original/mY7SeH4HFFxW1hiI6cWuwCRKptN.jpg",
                    "availability": {
                        "US": {
                            "Netflix": false,
                            "Hulu": false,
                            "Prime Video": true
                        }
                    }
                },
                {
                    "title": "The Mandalorian",
                    "IMDbID": "tt8111088",
                    "TMDbID": "82856",
                    "IMDbRating": "8.8",
                    "link": {
                        "Netflix": "",
                        "Hulu": "https://www.hulu.com/series/the-mandalorian",
                        "Prime Video": ""
                    },
                    "cast": [
                        "Pedro Pascal",
                        "Gina Carano",
                        "Carl Weathers",
                        "Giancarlo Esposito"
                    ],
                    "runtime": "40 minutes",
                    "poster": "https://image.tmdb.org/t/p/original/sWgBv7LV2PRoQgkxwlibdGXKz1S.jpg",
                    "availability": {
                        "US": {
                            "Netflix": false,
                            "Hulu": true,
                            "Prime Video": false
                        }
                    }
                }
            ],
            "pagination": {
                "current_page": 1,
                "items_per_page": 8,
                "total_pages": 150,
                "total_items": 1200
            }
        }
    },
    "{'services': 'Netflix,Prime Video,Hulu', 'country': 'US', 'show_type': 'series', 'output_language': 'en'}": {
        "error": "",
        "response": {
            "results": [
                {
                    "title": "Breaking Bad",
                    "IMDbID": "tt0903747",
                    "TMDbID": "1396",
                    "IMDbRating": "9.4",
                    "link": {
                        "netflix": "https://www.netflix.com/title/70143836",
                        "hulu": "",
                        "prime": "https://www.primevideo.com/detail/Breaking-Bad/0O73VV3M68YDS8B9MYO1SMXFUJ"
                    },
                    "cast": [
                        "Bryan Cranston",
                        "Aaron Paul",
                        "Anna Gunn",
                        "Dean Norris",
                        "Betsy Brandt"
                    ],
                    "runtime": "47 minutes",
                    "poster": "https://image.tmdb.org/t/p/original/1yeVJox3rjo2jBKrrihIMj7uoS9.jpg",
                    "availability": {
                        "US": {
                            "netflix": true,
                            "hulu": false,
                            "prime": true
                        }
                    }
                },
                {
                    "title": "The Mandalorian",
                    "IMDbID": "tt8111088",
                    "TMDbID": "82856",
                    "IMDbRating": "8.7",
                    "link": {
                        "netflix": "",
                        "hulu": "",
                        "prime": "https://www.primevideo.com/detail/The-Mandalorian/0MNPYM0J3T6PZY5A5GZV48CNQQ"
                    },
                    "cast": [
                        "Pedro Pascal",
                        "Gina Carano",
                        "Carl Weathers",
                        "Giancarlo Esposito"
                    ],
                    "runtime": "40 minutes",
                    "poster": "https://image.tmdb.org/t/p/original/sWgBv7LV2PRoQgkxwlibdGXKz1S.jpg",
                    "availability": {
                        "US": {
                            "netflix": false,
                            "hulu": false,
                            "prime": true
                        }
                    }
                },
                {
                    "title": "This Is Us",
                    "IMDbID": "tt5555260",
                    "TMDbID": "67136",
                    "IMDbRating": "8.7",
                    "link": {
                        "netflix": "",
                        "hulu": "https://www.hulu.com/series/this-is-us",
                        "prime": ""
                    },
                    "cast": [
                        "Milo Ventimiglia",
                        "Mandy Moore",
                        "Sterling K. Brown",
                        "Chrissy Metz"
                    ],
                    "runtime": "43 minutes",
                    "poster": "https://image.tmdb.org/t/p/original/z6ELFtbOQ3qsQq7toJoE2HWBFoA.jpg",
                    "availability": {
                        "US": {
                            "netflix": false,
                            "hulu": true,
                            "prime": false
                        }
                    }
                },
                {
                    "title": "The Crown",
                    "IMDbID": "tt4786824",
                    "TMDbID": "65494",
                    "IMDbRating": "8.6",
                    "link": {
                        "netflix": "https://www.netflix.com/title/80025678",
                        "hulu": "",
                        "prime": ""
                    },
                    "cast": [
                        "Olivia Colman",
                        "Helena Bonham Carter",
                        "Tobias Menzies",
                        "Josh O'Connor"
                    ],
                    "runtime": "52 minutes",
                    "poster": "https://image.tmdb.org/t/p/original/ijyGp0KcdV7fv9eO7u5eeiT8jX9.jpg",
                    "availability": {
                        "US": {
                            "netflix": true,
                            "hulu": false,
                            "prime": false
                        }
                    }
                }
            ],
            "pagination": {
                "current_page": 1,
                "items_per_page": 8,
                "total_pages": 250,
                "total_items": 2000
            }
        }
    }
}