{
  "{'sellerid': '231651707', 'storeid': '0', 'currency': 'USD', 'region': 'US', 'locale': 'en_US', 'sort': 'default', 'page': 2, 'pagesize': 10}": {
    "error": "",
    "response": {
      "result": {
        "status": {
          "data": "success",
          "code": 200,
          "executionTime": "0.34",
          "requestTime": "2023-07-18 16:51:21",
          "requestId": "bead75e12e9977b885f3d15cb1a1fcea",
          "endpoint": "store_item_search",
          "apiVersion": "3.2.4",
          "functionsVersion": "3.0.8",
          "la": "0.00",
          "pmu": 458880,
          "mu": 458560
        },
        "settings": {
          "sellerId": "231651707",
          "storeId": "0",
          "sort": "default",
          "page": "2",
          "pageSize": "10",
          "region": "US",
          "locale": "en_US",
          "currency": "USD"
        },
        "base": {
          "currentPage": 2,
          "totalPage": 13,
          "totalResults": 126,
          "sortValues": [
            "default",
            "salesDesc",
            "priceAsc",
            "priceDesc",
            "latest"
          ]
        },
        "resultList": [
          {
            "item": {
              "itemId": 1005005681882007,
              "title": "LU20 GPS Drone 8K Professional Dual ESC Camera Optical Flow Positioning Obstacle Avoidance Brushless RC Quadcopter 5000M",
              "sales": null,
              "image": "//ae04.alicdn.com/kf/Saef62856ba434f76b24e010464cf92adJ.jpg",
              "sku": {
                "def": {
                  "price": 38.93,
                  "promotionPrice": 38.93
                }
              },
              "unit": "piece",
              "unitsPerLot": 1,
              "reviewCount": 0,
              "averageStar": 0,
              "averageStarRate": null
            }
          },
          {
            "item": {
              "itemId": 1005005532778043,
              "title": "2 IN 1 RC Tank Toy 2.4G Radio Control Car Water Bomb War Tank Remote Control Multiplayer Tank RC Toys for Boy Kids Gift",
              "sales": null,
              "image": "//ae04.alicdn.com/kf/S90d8aab29e2e4525abb5ee779b5c43b10.jpg",
              "sku": {
                "def": {
                  "price": 46.97,
                  "promotionPrice": 46.97
                }
              },
              "unit": "piece",
              "unitsPerLot": 1,
              "reviewCount": 0,
              "averageStar": 0,
              "averageStarRate": null
            }
          },
          {
            "item": {
              "itemId": 1005004837178560,
              "title": "V25 RC Airplane with 480P Camera Quadcopter 2.4GHz RC Stunt Plane Gliding Aircraft Flight Toys with Function 360\u00b0 Tumbling Drone",
              "sales": 2,
              "image": "//ae04.alicdn.com/kf/S1cceb5a58c7842ed95c98d812c96f6970.jpg",
              "sku": {
                "def": {
                  "price": 36.38,
                  "promotionPrice": 36.38
                }
              },
              "unit": "piece",
              "unitsPerLot": 1,
              "reviewCount": 0,
              "averageStar": 0,
              "averageStarRate": 0
            }
          }
        ]
      }
    }
  }
}