{
  "{'id_restaurant': 737170, 'limit': 1, 'sort': 'AVERAGE_RATING_DESC'}": {
    "error": "",
    "response": {
      "result": 1,
      "result_code": null,
      "result_detail": "",
      "result_msg": "",
      "result_cached": null,
      "data": {
        "collection": [
          {
            "customer": {
              "avatar_url": null,
              "name": "Sara C.",
              "rating_count": null,
              "distinction": null
            },
            "vote_count": 0,
            "restaurant": {
              "id_restaurant": 737170,
              "name": "Bicer\u00ecn Milano"
            },
            "guest_reviews": null,
            "food_reports": null,
            "id": 64916390,
            "date": "2022-12-30T19:30:00+0000",
            "moderation_status": "PUBLISHED",
            "reservation": {
              "id_reservation": 1957996045
            },
            "rating": {
              "average": 10,
              "ambience": 10,
              "food": 10,
              "service": 10
            },
            "comment": {
              "content": "Bicer\u00ecn was a lovely little place for dinner. The food, especially the polpo and riso were absolutely to die for. The staff provided wonderful service and were helpful in selecting wines. We really enjoyed it so much! Thank you Bicer\u00ecn!",
              "reply": null,
              "language": "en"
            }
          }
        ],
        "pagination": {
          "total": 9,
          "page": 1,
          "next": 2,
          "previous": null,
          "limit": 1
        }
      },
      "sync": []
    }
  }
}