{
  "{}": {
    "error": "",
    "response": {
      "data": [
        {
          "id": 1,
          "attributes": {
            "Year": 1969,
            "Make": "Abarth",
            "Model": "2000"
          }
        },
        {
          "id": 2,
          "attributes": {
            "Year": 1967,
            "Make": "Abarth",
            "Model": "1300"
          }
        },
        {
          "id": 3,
          "attributes": {
            "Year": 1968,
            "Make": "Abarth",
            "Model": "2000"
          }
        },
        {
          "id": 4,
          "attributes": {
            "Year": 1969,
            "Make": "Abarth",
            "Model": "1300"
          }
        },
        {
          "id": 5,
          "attributes": {
            "Year": 1966,
            "Make": "Abarth",
            "Model": "2000"
          }
        },
        {
          "id": 6,
          "attributes": {
            "Year": 1967,
            "Make": "Abarth",
            "Model": "2000"
          }
        },
        {
          "id": 7,
          "attributes": {
            "Year": 1968,
            "Make": "Abarth",
            "Model": "1300"
          }
        },
        {
          "id": 8,
          "attributes": {
            "Year": 1969,
            "Make": "Abarth",
            "Model": "Simca"
          }
        },
        {
          "id": 9,
          "attributes": {
            "Year": 1960,
            "Make": "Abarth",
            "Model": "1600"
          }
        },
        {
          "id": 10,
          "attributes": {
            "Year": 1965,
            "Make": "Abarth",
            "Model": "Simca"
          }
        },
        {
          "id": 11,
          "attributes": {
            "Year": 1960,
            "Make": "Abarth",
            "Model": "750"
          }
        },
        {
          "id": 12,
          "attributes": {
            "Year": 1952,
            "Make": "Abarth",
            "Model": "205"
          }
        },
        {
          "id": 13,
          "attributes": {
            "Year": 1968,
            "Make": "Abarth",
            "Model": "Simca"
          }
        },
        {
          "id": 14,
          "attributes": {
            "Year": 1960,
            "Make": "Abarth",
            "Model": "850"
          }
        },
        {
          "id": 15,
          "attributes": {
            "Year": 1954,
            "Make": "Abarth",
            "Model": "204"
          }
        },
        {
          "id": 16,
          "attributes": {
            "Year": 1962,
            "Make": "Abarth",
            "Model": "1600"
          }
        },
        {
          "id": 17,
          "attributes": {
            "Year": 1962,
            "Make": "Abarth",
            "Model": "1000"
          }
        },
        {
          "id": 18,
          "attributes": {
            "Year": 1965,
            "Make": "Abarth",
            "Model": "850"
          }
        },
        {
          "id": 19,
          "attributes": {
            "Year": 1961,
            "Make": "Abarth",
            "Model": "1600"
          }
        },
        {
          "id": 20,
          "attributes": {
            "Year": 1964,
            "Make": "Abarth",
            "Model": "1000"
          }
        },
        {
          "id": 21,
          "attributes": {
            "Year": 1966,
            "Make": "Abarth",
            "Model": "1000"
          }
        },
        {
          "id": 22,
          "attributes": {
            "Year": 1965,
            "Make": "Abarth",
            "Model": "1000"
          }
        },
        {
          "id": 23,
          "attributes": {
            "Year": 1956,
            "Make": "Abarth",
            "Model": "750"
          }
        },
        {
          "id": 24,
          "attributes": {
            "Year": 1964,
            "Make": "Abarth",
            "Model": "Simca"
          }
        },
        {
          "id": 25,
          "attributes": {
            "Year": 1962,
            "Make": "Abarth",
            "Model": "850"
          }
        }
      ],
      "meta": {
        "pagination": {
          "page": 1,
          "pageSize": 25,
          "pageCount": 1988,
          "total": 49683
        }
      }
    }
  }
}